0.27444815493148306 0.17424735847191933
0.17386166487914928 0.14678241236087602
0.16700464029243026 0.14537343210898912
0.1649039606253306 0.14030633656642374
0.16100529399902924 0.1413223263926995
0.15898092684970386 0.14394820118561769
0.15574662136858788 0.1370331184604229
0.15233416434215463 0.13137186280427834
0.1478537309212961 0.1278085030424289
0.14340312964674357 0.12234792113304138
0.13862113946157953 0.11752602935601504
0.13444806283366853 0.11448270025161597
0.1320671416927075 0.13096469105818334
0.12876577090094055 0.11649692593476711
0.12719070159870646 0.10618452555858172
0.12529591799214265 0.10788829796589337
0.1237355640185052 0.10760211925476025
0.12272936714732129 0.10818290557616796
0.12142734996218613 0.10314729255743516
0.12046401349530704 0.10639227984043267
0.11901626016782678 0.10501976101062237
0.11833570459182711 0.1082682871283629
0.11795282437317613 0.10132391464251739
0.11669234855883363 0.10576437279964104
0.11637457080077435 0.09978126180477631
0.11526578165914701 0.10368854094010133
0.11454842839983927 0.11094298576697326
0.11416847489882206 0.0970407913510616
0.1131144854037658 0.1088760508558689
0.1132761693087177 0.10322101605244172
0.11304639044447222 0.09325500749624692
0.1123632776564446 0.09629296931700829
0.11175089698770772 0.09623235043806908
0.11180156598920407 0.09532551830395675
0.11120868303637574 0.09731545261083505
0.11050161522799644 0.10547306694281407
0.11020475256702174 0.10053249295705403
0.10993170431558637 0.09386813296721531
0.10921962451243745 0.09621123606577897
0.10948627217524294 0.09468921770652135
0.10892718607100887 0.09901495908315365
0.1082180540414824 0.10954953519961773
0.10847048238999601 0.10787837379253827
0.10815274641997573 0.10513654962564126
0.10815683436998423 0.09857057951963864
0.10789810486029888 0.10571575260315186
0.10767590578483499 0.09338288333935615
0.10238211919432101 0.09335371871025135
0.10042274149431699 0.09174433866372475
