0.36811633344660416 0.20473323315382003
0.17146546472894383 0.17596171647310258
0.15888672591523922 0.1941996067762375
0.1540416311076347 0.23013979941606522
0.15042441163925416 0.1807541221380234
0.14811473704398948 0.20888883471488953
0.14628851857591182 0.16966279447078705
0.143953597291987 0.17889273911714554
0.1419546052496484 0.1876349374651909
0.14030465737302253 0.1886638417840004
0.14006242060914953 0.2118848517537117
0.13753971679413574 0.22862009853124618
0.1358331614669333 0.19770832657814025
0.1349366082155958 0.18876385390758516
0.13345105248562833 0.22154989540576936
