0.36811633344660416 0.20473323315382003
0.17146546472894383 0.17596171647310258
0.15888672591523922 0.1941996067762375
0.1540416311076347 0.23013979941606522
0.15042441163925416 0.1807541221380234
0.14811473704398948 0.20888883471488953
0.14628851857591182 0.16966279447078705
0.143953597291987 0.17889273911714554
0.1419546052496484 0.1876349374651909
0.14030465737302253 0.1886638417840004
0.14006242060914953 0.2118848517537117
0.13753971679413574 0.22862009853124618
0.1358331614669333 0.19770832657814025
0.1349366082155958 0.18876385390758516
0.13345105248562833 0.22154989540576936
0.13224666993668738 0.17544279992580414
0.13120596459571351 0.17955689430236815
0.13035930471217377 0.17273882925510406
0.1293042554183209 0.17610322535037995
0.12859645010309018 0.17673312723636628
0.12836428398781635 0.18118690848350524
0.12842939889177363 0.18435800224542617
0.1283072420257203 0.17589928731322288
0.12807409703097444 0.18229977637529374
0.12789453914824953 0.1828215539455414
0.12753735403431224 0.1701536610722542
0.12767342953605854 0.17581970393657684
0.1272878147503163 0.1716986782848835
0.1271020621061325 0.17044718489050864
0.12683761975866684 0.17463946714997292
0.1268905467809515 0.17439228892326356
0.1266605517965682 0.17426205724477767
0.12695839747469476 0.17379264310002326
0.12676917967644144 0.17380773574113845
0.12680124206111787 0.17340334877371788
0.1265677403896413 0.17449774891138076
0.12662250120589075 0.17580465152859687
0.12668719269493792 0.17439628392457962
0.12660811302509714 0.17360606044530869
0.12665042661605996 0.1735313579440117
0.12655142631302488 0.17389847189188004
0.12669462837437365 0.17244354784488677
0.12643411264140555 0.17381695210933684
0.1265503099941193 0.17235481664538382
0.12662211108080884 0.17341289892792702
