0.16943240021018013 0.13567431576741049
0.15055059082266214 0.1721974431704252
0.14051275840703992 0.13833031077415514
0.12960322291954704 0.11036272595326106
0.12418012819860293 0.18203188784611532
0.11978467098180799 0.14613941674813247
0.11668811846470488 0.12098899235328038
0.12138411212658537 0.21675766087495363
0.11729658833448438 0.15980478261525816
0.11285389698501946 0.11563456899080521
0.10999290208885636 0.25078374491288113
0.10868989391171414 0.11341987110865422
0.1075450143304424 0.11849133593913837
0.10572261261767235 0.1134931660997562
0.10550675301448159 0.1150913261450254
0.10400918579619864 0.14844583185055318
0.10351333013479261 0.12376966900550403
0.10226476287496263 0.1091145661014777
0.10169529996920323 0.10309335245535924
0.10137568148581878 0.12040384992575034
0.1003187429861746 0.18879536099922964
0.10041408931863481 0.11310762873826882
0.09976311602454255 0.11742067833741505
0.09905478515918704 0.10561932336825591
0.09896779429653417 0.12178757385565685
0.08979842613140741 0.09472509043721053
0.08715042258086411 0.09387633787133755
