0.16943240021018013 0.13567431576741049
0.15055059082266214 0.1721974431704252
0.14051275840703992 0.13833031077415514
0.12960322291954704 0.11036272595326106
0.12418012819860293 0.18203188784611532
0.11978467098180799 0.14613941674813247
0.11668811846470488 0.12098899235328038
0.12138411212658537 0.21675766087495363
0.11729658833448438 0.15980478261525816
0.11285389698501946 0.11563456899080521
0.10999290208885636 0.25078374491288113
0.10868989391171414 0.11341987110865422
0.1075450143304424 0.11849133593913837
0.10572261261767235 0.1134931660997562
0.10550675301448159 0.1150913261450254
0.10400918579619864 0.14844583185055318
0.10351333013479261 0.12376966900550403
0.10226476287496263 0.1091145661014777
0.10169529996920323 0.10309335245535924
0.10137568148581878 0.12040384992575034
0.1003187429861746 0.18879536099922964
0.10041408931863481 0.11310762873826882
0.09976311602454255 0.11742067833741505
0.09905478515918704 0.10561932336825591
0.09896779429653417 0.12178757385565685
0.09823767583871233 0.09383550324501136
0.09722558078558549 0.09381578031640786
0.09741596376550371 0.1015506482277161
0.09653146338203679 0.14579394650764954
0.09587356404981752 0.11178902593942788
0.09617077764393626 0.10395550976196925
0.09571622860604438 0.09290217894774216
0.09573528408140376 0.11030717022143878
0.09478691237560218 0.09775191612350635
0.0944923936024956 0.11126023913041139
0.09392269860575164 0.20251196661056617
0.09434967492369638 0.15805345716384742
0.09429684521063514 0.33756856811352265
0.0930775053475214 0.12933179525992808
0.09326744209165158 0.10627659123677474
0.0933978258267693 0.0935029648244381
0.09331979265679484 0.13524283812596247
0.093370853861173 0.10330815059252274
0.092373636710471 0.09211091353343083
0.08258203320961068 0.08944807870265765
0.07962682402652244 0.09267531392666009
0.07856108510623808 0.09554716533957383
0.07780351772688437 0.09107126830480038
0.07718727443961129 0.0901796546501991
0.07665242553837058 0.09435991723185931
0.07596598964022554 0.08812311788400014
0.07571919957796733 0.09296191846713042
0.07512261573819147 0.08780611965518731
0.07492704193877137 0.0964022495616705
0.07439749110220135 0.09100696329887097
