0.15277806520462037 0.1781220790743828
0.1246392023563385 0.16472664793332417
0.11733480175336201 0.22075212895870208
0.11270975430806478 0.23165130257606506
0.11038902775446574 0.1552633661031723
0.10794140283266704 0.15313980688651402
0.10618026695648829 0.1675603410601616
0.1048047078649203 0.15036827941735587
