0.15277806520462037 0.1781220790743828
0.1246392023563385 0.16472664793332417
0.11733480175336201 0.22075212895870208
0.11270975430806478 0.23165130257606506
0.11038902775446574 0.1552633661031723
0.10794140283266704 0.15313980688651402
0.10618026695648829 0.1675603410601616
0.1048047078649203 0.15036827941735587
0.10434350810448328 0.23292909721533459
0.10270216679573059 0.24695812781651816
0.10269221317768097 0.1545952221751213
0.10147684238354365 0.15436786989370982
0.10090603884061178 0.17924342374006907
0.10024311057726543 0.15655745337406793
0.10005521996816 0.2407503726085027
0.10008274879058202 0.2230145404736201
0.09904940025011698 0.15523098270098368
0.09825754127899805 0.2041339917977651
0.09843556374311448 0.2979028727610906
0.09809787042935689 0.16210447857777277
0.09765888450543085 0.15363896777232489
0.09682112962007522 0.26991171975930534
0.09761158458391825 0.15739605486392974
0.0966179771622022 0.2283481546243032
0.09601027055581411 0.1502012839913368
0.09633882800738017 0.16129658778508504
0.09561086769898733 0.15202003667751948
0.0961926332116127 0.15670389225085576
0.09597210989395777 0.15078468759854635
0.09522468930482865 0.15577167212963106
0.09484030423561732 0.1494128868977229
