0.16203172053893408 0.16171608875195184
0.12566187351942062 0.17927664577960967
0.11640475211540859 0.1679199046889941
0.11133243318398793 0.1555635224779447
0.10782776765028636 0.1579450504978498
0.10493615343173344 0.15481233139832815
0.10319637829065323 0.17448242545127868
0.1014313657283783 0.1630028455456098
0.09991655397415161 0.15465629478295645
0.09904466674725215 0.15410370449225108
0.09787988704442978 0.1465484716494878
0.09664575024445851 0.16431999762852986
0.09648542777697246 0.15400052487850188
0.0961062044898669 0.14801133890946705
0.09475697875022888 0.14904694825410844
0.0947965437968572 0.15813750972350438
0.09395600106318791 0.16380007515350978
0.09369215744733811 0.1500370091199875
0.09333775331576666 0.14828362395366032
0.09298962203661601 0.1527604145805041
0.09236208828290303 0.15559179961681366
0.091680717309316 0.14933117349942526
0.09198914416631063 0.15401370306809745
0.09204844504594803 0.1553042510151863
0.09067544150352479 0.15684070259332658
0.09073170365889867 0.156978526810805
0.09062670967976252 0.15277371277411778
0.09019577564795812 0.1594459914167722
0.089831087688605 0.1489701411128044
0.08956090428431829 0.15857180376847585
0.08955076056718826 0.1537757538755735
0.08909307775894801 0.1550272567073504
0.08917276674509049 0.1531740881005923
0.08856918062766393 0.16418094088633856
0.08853240518768628 0.18642263273398083
