0.16203172053893408 0.16171608875195184
0.12566187351942062 0.17927664577960967
0.11640475211540859 0.1679199046889941
0.11133243318398793 0.1555635224779447
0.10782776765028636 0.1579450504978498
0.10493615343173344 0.15481233139832815
