0.16203172053893408 0.16171608875195184
0.12566187351942062 0.17927664577960967
0.11640475211540859 0.1679199046889941
0.11133243318398793 0.1555635224779447
0.10782776765028636 0.1579450504978498
0.10493615343173344 0.15481233139832815
0.10319637829065323 0.17448242545127868
0.1014313657283783 0.1630028455456098
0.09991655397415161 0.15465629478295645
0.09904466674725215 0.15410370449225108
0.09787988704442978 0.1465484716494878
0.09664575024445851 0.16431999762852986
0.09648542777697246 0.15400052487850188
0.0961062044898669 0.14801133890946705
0.09475697875022888 0.14904694825410844
0.0947965437968572 0.15813750972350438
0.09395600106318791 0.16380007515350978
0.09369215744733811 0.1500370091199875
0.09333775331576666 0.14828362395366032
0.09298962203661601 0.1527604145805041
