0.2428323258558909 0.17148875464995703
0.1710883711973826 0.1687876522541046
0.16295253415902455 0.15990481774012247
0.15482464998960496 0.1608895648519198
0.1498268301685651 0.1696695907910665
0.14484740722179412 0.16046118170022963
0.13722005226214726 0.15706740736961364
0.1299056204756101 0.16015344788630803
0.1254802510937055 0.15612922191619874
0.12255235854784648 0.1567191758751869
0.1198584494193395 0.16316650807857513
0.11809693014621735 0.15109748085339864
0.11680841467777887 0.15559803515672685
0.11596996269623439 0.15674805929263433
0.11399440312385559 0.15492000331481298
0.11317948865890502 0.15566251546144486
0.1122789282798767 0.16246743361155191
0.11117566694815953 0.15499242275953293
0.1101627338528633 0.1560419973731041
0.11024647635221481 0.15953197777271272
