0.2428323258558909 0.17148875464995703
0.1710883711973826 0.1687876522541046
0.16295253415902455 0.15990481774012247
0.15482464998960496 0.1608895648519198
0.1498268301685651 0.1696695907910665
0.14484740722179412 0.16046118170022963
0.13722005226214726 0.15706740736961364
0.1299056204756101 0.16015344788630803
0.1254802510937055 0.15612922191619874
0.12255235854784648 0.1567191758751869
0.1198584494193395 0.16316650807857513
0.11809693014621735 0.15109748085339864
0.11680841467777887 0.15559803515672685
0.11596996269623439 0.15674805929263433
0.11399440312385559 0.15492000331481298
0.11317948865890502 0.15566251546144486
0.1122789282798767 0.16246743361155191
0.11117566694815953 0.15499242275953293
0.1101627338528633 0.1560419973731041
0.11024647635221481 0.15953197777271272
0.10918319010734558 0.15665451169013977
0.10864186151822408 0.15603151539961496
0.1079364571372668 0.15585047245025635
0.10721916232506434 0.16366576065619787
0.10700483822822571 0.15365048080682756
0.10636113985379538 0.1562607118487358
0.10606864519913992 0.15540595432122548
0.10530085817972819 0.15965552479028702
0.10138584341605504 0.15864831546942393
0.10060181786616643 0.15645146618286768
0.10020922034978867 0.15554037084182104
0.09986932585636775 0.15693257917960485
0.09964030448595683 0.15520185242096582
0.09928952930370967 0.15772848268349965
0.09925607965389888 0.15933101256688437
0.09933297604322433 0.1591280116637548
0.09896254938840866 0.15660136232773464
0.09854643336931865 0.15601209690173468
0.09856033390760421 0.15992860982815424
0.09848761981725693 0.1580667809645335
0.09808768190940222 0.15760442107915879
0.09833703658978145 0.15897809813419977
0.09812901679674785 0.15764854778846105
0.09769257199764252 0.1583004574974378
0.09594189184904099 0.15839729299147923
0.09591456000010172 0.15855299443006515
0.09523468281825384 0.15732159227132797
0.09526463385423024 0.1570213125149409
0.09496313256025314 0.1563740998506546
0.09500989963610967 0.1571781442562739
0.09521395715077718 0.15849272628625233
0.0954802481730779 0.15788412908713023
0.09505674413839976 0.1582623432079951
0.0944727879166603 0.15775209426879883
0.09472156343857448 0.15721497903267542
0.09489463220040004 0.15912094265222548
0.09486926845709483 0.1576941222945849
0.09470754061142604 0.1596661314368248
0.09436668580770492 0.15895977089802424
0.09464057675997416 0.15771422624588013
0.09401355789105098 0.15859361638625463
0.09380904930830002 0.15812791824340822
0.09404854516188303 0.15737729827562968
0.0936192303498586 0.15967378715674083
0.09371107254425684 0.15972488602002463
0.09373738298813503 0.15977308601140977
0.09354573267698288 0.15964185525973637
0.09359199452400208 0.15962015171845753
0.09367740658919016 0.15831799040238062
0.09376776736974717 0.15900390257438024
0.09346467779080073 0.15913207749525707
0.09341684015591939 0.1591209696729978
0.09342764387528102 0.15873102029164632
0.09368170847495397 0.15842252522706984
0.0935540759563446 0.15903412769238154
0.09382093779246012 0.15897764533758163
0.09327360727389654 0.16015850404898327
0.093660402794679 0.15808231592178346
0.09332582197586696 0.15984477519989013
0.09372828956445058 0.16005701780319215
0.09349192225933076 0.1593635508418083
0.09321945275863011 0.15910814414421717
0.09299172693490983 0.1589452518026034
0.09351826657851538 0.15985656569401424
0.09310521419843037 0.15919442514578502
0.09328834982713063 0.15816814015309016
0.0931426940759023 0.1596013464530309
0.0933342319726944 0.1594138452410698
0.09352678239345551 0.1586702436208725
0.09337183024485907 0.15956963459650675
0.09320202052593231 0.1577272974451383
0.09278884253899257 0.15935132404168448
0.09326350150505702 0.1600610927740733
0.09296632866064708 0.15867539058128993
0.09361089813709259 0.15948254932959874
0.09351434679826101 0.1583553863565127
0.09319913762807847 0.15945506115754446
0.09307065924008687 0.15951743662357332
0.09326704182227452 0.15876699974139533
0.0931617101430893 0.15898530622323354
0.09344672024250031 0.15916830509901048
0.09277641872564951 0.15925165156523385
0.0931136968533198 0.15930734058221183
0.09279038997491201 0.15968012462059658
0.09290489834547043 0.15918744961420694
0.09327365736166636 0.15988203386465707
0.09294746989011765 0.16013252000013986
0.0929744616150856 0.16071815480788548
0.09298580145835876 0.15856278946002325
0.09315900919834773 0.15876211126645406
