0.2428323258558909 0.17148875464995703
0.1710883711973826 0.1687876522541046
0.16295253415902455 0.15990481774012247
0.15482464998960496 0.1608895648519198
0.1498268301685651 0.1696695907910665
0.14484740722179412 0.16046118170022963
0.13722005226214726 0.15706740736961364
0.1299056204756101 0.16015344788630803
0.1254802510937055 0.15612922191619874
0.12255235854784648 0.1567191758751869
0.1198584494193395 0.16316650807857513
0.11809693014621735 0.15109748085339864
0.11680841467777887 0.15559803515672685
0.11596996269623439 0.15674805929263433
0.11399440312385559 0.15492000331481298
0.11317948865890502 0.15566251546144486
0.1122789282798767 0.16246743361155191
0.11117566694815953 0.15499242275953293
0.1101627338528633 0.1560419973731041
0.11024647635221481 0.15953197777271272
0.10918319010734558 0.15665451169013977
0.10864186151822408 0.15603151539961496
0.1079364571372668 0.15585047245025635
0.10721916232506434 0.16366576065619787
0.10700483822822571 0.15365048080682756
0.10636113985379538 0.1562607118487358
0.10606864519913992 0.15540595432122548
0.10530085817972819 0.15965552479028702
0.10138584341605504 0.15864831546942393
0.10060181786616643 0.15645146618286768
