0.3103291585364125 0.17602980136871338
0.17532780326225542 0.3085582911968231
0.17602464793757958 0.21934817731380463
0.15881657295606352 0.15716244280338287
0.15187406506050716 0.14840890765190123
0.14904331652955574 0.17646873295307158
0.1472039788284085 0.14065624177455902
0.14706442335789854 0.15614359378814696
0.14429683170535348 0.1572091430425644
0.14121935347264464 0.12922049164772034
0.13800722496076065 0.1985561043024063
0.1364729521288113 0.1949347287416458
0.1349435452033173 0.13139352202415466
0.13276572559367528 0.14481354653835296
0.13186874037439172 0.14723868370056153
0.13022154772823508 0.1434214621782303
0.12915987606075677 0.22657278180122375
0.12694940682161937 0.13357355445623398
0.1275548559020866 0.13596193492412567
0.12762679481370884 0.19587773084640503
0.12728348594497552 0.1667654663324356
0.1286901289766485 0.1294884756207466
0.12460512481629848 0.2021569401025772
0.12381019951267676 0.11642995774745941
