0.3103291585364125 0.17602980136871338
0.17532780326225542 0.3085582911968231
0.17602464793757958 0.21934817731380463
0.15881657295606352 0.15716244280338287
0.15187406506050716 0.14840890765190123
0.14904331652955574 0.17646873295307158
0.1472039788284085 0.14065624177455902
0.14706442335789854 0.15614359378814696
0.14429683170535348 0.1572091430425644
0.14121935347264464 0.12922049164772034
0.13800722496076065 0.1985561043024063
0.1364729521288113 0.1949347287416458
0.1349435452033173 0.13139352202415466
0.13276572559367528 0.14481354653835296
0.13186874037439172 0.14723868370056153
0.13022154772823508 0.1434214621782303
0.12915987606075677 0.22657278180122375
0.12694940682161937 0.13357355445623398
0.1275548559020866 0.13596193492412567
0.12762679481370884 0.19587773084640503
0.12728348594497552 0.1667654663324356
0.1286901289766485 0.1294884756207466
0.12460512481629848 0.2021569401025772
0.12381019951267676 0.11642995774745941
0.12216249717907472 0.2037005752325058
0.1223776237192479 0.1524377793073654
0.12378112988715823 0.12934321016073227
0.12274554625830868 0.24399762451648713
0.12077544765038924 0.11929591745138168
0.12329387783326885 0.13485670685768128
0.12070505913685668 0.13439000248908997
0.1196768566627394 0.11685667186975479
0.12252502465112643 0.21727277040481568
0.12465248104523528 0.11590594500303268
0.12158302793448622 0.13061543107032775
0.11841775951060382 0.14636327624320983
0.12779259156774392 0.17476961612701417
0.12870272926308893 0.11363917738199233
0.1216267254203558 0.13365505039691924
0.11946045217866247 0.12219758778810501
0.12152862921357155 0.2930181324481964
0.12150959806008772 0.12706962525844573
0.12422006763517857 0.11861723065376281
0.11989682726562023 0.12824870347976686
0.12066627497022803 0.15958857238292695
