0.3103291585364125 0.17602980136871338
0.17532780326225542 0.3085582911968231
0.17602464793757958 0.21934817731380463
0.15881657295606352 0.15716244280338287
0.15187406506050716 0.14840890765190123
0.14904331652955574 0.17646873295307158
0.1472039788284085 0.14065624177455902
0.14706442335789854 0.15614359378814696
0.14429683170535348 0.1572091430425644
0.14121935347264464 0.12922049164772034
0.13800722496076065 0.1985561043024063
0.1364729521288113 0.1949347287416458
0.1349435452033173 0.13139352202415466
0.13276572559367528 0.14481354653835296
0.13186874037439172 0.14723868370056153
0.13022154772823508 0.1434214621782303
0.12915987606075677 0.22657278180122375
0.12694940682161937 0.13357355445623398
0.1275548559020866 0.13596193492412567
0.12762679481370884 0.19587773084640503
0.12728348594497552 0.1667654663324356
0.1286901289766485 0.1294884756207466
0.12460512481629848 0.2021569401025772
0.12381019951267676 0.11642995774745941
0.12216249717907472 0.2037005752325058
0.1223776237192479 0.1524377793073654
0.12378112988715823 0.12934321016073227
0.12274554625830868 0.24399762451648713
0.12077544765038924 0.11929591745138168
0.12329387783326885 0.13485670685768128
0.12070505913685668 0.13439000248908997
0.1196768566627394 0.11685667186975479
0.12252502465112643 0.21727277040481568
0.12465248104523528 0.11590594500303268
0.12158302793448622 0.13061543107032775
0.11841775951060382 0.14636327624320983
0.12779259156774392 0.17476961612701417
0.12870272926308893 0.11363917738199233
0.1216267254203558 0.13365505039691924
0.11946045217866247 0.12219758778810501
0.12152862921357155 0.2930181324481964
0.12150959806008772 0.12706962525844573
0.12422006763517857 0.11861723065376281
0.11989682726562023 0.12824870347976686
0.12066627497022803 0.15958857238292695
0.13144777071746913 0.15837147533893586
0.1267820798199285 0.10979118645191192
0.12125140818005259 0.1491877853870392
0.12139165062795985 0.3446663737297058
0.11682356555353511 0.273365980386734
0.1191175232895396 0.3070723474025726
0.11957425031472337 0.1434590458869934
0.12001490000296723 0.10501056611537933
0.11973426948216828 0.15244666934013368
0.11876416053961623 0.1867627739906311
0.11648419076068835 0.11556286662817002
0.1155947216532447 0.35261098146438596
0.12126091986217281 0.1237383484840393
0.1174419584938071 0.17658006250858307
0.11751350709660487 0.203009957075119
0.11660063469951804 0.20072707235813142
0.11810827187516472 0.11304248124361038
0.11653787066990678 0.14344317764043807
0.11581462824886496 0.38426263332366944
0.1212822769514539 0.15603386759757995
0.1159861409528689 0.16826243400573732
0.1202921024100347 0.16283772885799408
0.11702981709756634 0.2658926397562027
0.11438474567099051 0.13789084553718567
0.10952142405916344 0.10261480808258057
0.10743684474040162 0.0995822235941887
0.10642086206512018 0.09296590536832809
0.10569311780008403 0.09461077898740769
0.10560985806990754 0.10279932469129563
0.10586007532070983 0.10930446684360504
0.1055510440333323 0.09253774285316467
0.10616998645392331 0.10276881605386734
0.10435772060670635 0.09741071313619613
0.1056556435809894 0.12219999581575394
0.10485695844346826 0.09980420619249344
0.1055224271999164 0.1003562942147255
0.10503394427624616 0.10601186752319336
0.10589159635657613 0.17409742176532744
0.10504934750497341 0.0969606727361679
0.10584378005428748 0.10733981281518937
0.10439263758334247 0.09168006479740143
0.10383896275677464 0.10142638087272644
0.10472171160985123 0.15105816423892976
0.10376102341846986 0.0988749161362648
0.10463712855496189 0.12336401343345642
0.10756290026686409 0.10155594348907471
0.10534528338096359 0.09892964363098145
0.10393516380678523 0.11970072388648986
0.10549015196209605 0.10546709150075913
0.10535572469234467 0.09624093621969224
0.10461314225738699 0.10283512026071548
0.10390181416137652 0.14049097895622253
0.10533305816352367 0.09978130906820297
0.10312021625312892 0.11294769197702408
0.10302857512777502 0.21661751568317414
0.10399217023090883 0.10174773633480072
0.10335390574552795 0.16034981310367585
0.10216748460449955 0.09381299465894699
0.10191053660078482 0.09677864760160446
0.09930447793819687 0.09382829219102859
0.09936061264439063 0.09705090075731278
0.0997994721613147 0.09547019898891448
0.09875614788721908 0.09057135432958603
0.09855994988571513 0.09423372447490692
0.09940306588330051 0.09630288481712342
0.0979949300262061 0.0920977845788002
0.09784229286015034 0.09366356283426285
0.09759282100607049 0.0986256629228592
0.09724034165794199 0.09175794869661331
0.09768357195637443 0.09823130369186402
0.09869814071465623 0.0980546846985817
0.09864062290977348 0.09251623451709748
0.0983700527047569 0.09158602505922317
0.09804341112348167 0.09454577416181564
0.09844627790153027 0.0922672063112259
0.09837390550158241 0.0942449226975441
0.0976960188285871 0.10235962569713593
0.09749441593885422 0.09335879981517792
0.09733972884714603 0.09090901017189026
0.09621792083436792 0.09210472255945205
