0.5078386799855665 0.26829399466514586
0.2250455983660438 0.18650094866752626
0.19410600140690804 0.16673027575016022
0.18232011591846292 0.16006491482257842
0.17805855822834102 0.15743334889411925
0.17415398020635953 0.15321897566318513
0.17181544479998676 0.1503852814435959
0.16933445700190283 0.14873533248901366
0.16764751449227333 0.14753338098526
0.1660279231992635 0.14647655487060546
0.16537843068892305 0.14488951563835145
0.1647682779214599 0.14471391439437867
0.16261080398478292 0.14382981061935424
0.1621010151099075 0.14241050481796264
0.1624278903684833 0.14147579967975615
0.16185205328193578 0.14071145057678222
0.15972227298400618 0.13931147158145904
0.1588863537392833 0.13873760402202606
0.15806765922091223 0.1383117213845253
0.15871606530113655 0.13683810830116272
0.15583720870993353 0.13596805632114412
0.15583966604687952 0.13598936945199966
0.15408758954568344 0.1339549034833908
0.1539447375319221 0.1332002177834511
0.15358713269233704 0.13326703310012816
0.15098790688948197 0.13134505450725556
0.15065119415521622 0.13065118491649627
0.15073944120244545 0.13001712113618852
0.14944748072461647 0.13041878640651702
0.14776472239331764 0.12836012989282608
0.14684022217988968 0.12774476110935212
0.14757860181006519 0.12850050628185272
0.1473091786557978 0.1269698217511177
0.14521572942083533 0.12596900761127472
0.14453390206802974 0.12527759820222856
0.14345019513910467 0.12619090527296067
0.14224315417761152 0.1234468549489975
0.14288186485117133 0.12329241931438446
0.14206428317861122 0.12423040568828583
0.14192422445524822 0.12466718256473541
0.14040158756754614 0.12217419892549515
0.1398346833884716 0.12182127833366393
0.13974295962940564 0.12209384888410568
0.13854621553962881 0.12198678702116013
0.1381361044266007 0.12087736427783966
0.13766940208998593 0.120941361784935
0.13723800229755315 0.12084931880235672
0.13574180785905232 0.11989488303661347
0.13538675331933933 0.11939051002264023
0.1353073726323518 0.1191483736038208
0.13377143611962145 0.11832701414823532
0.13279968026009473 0.11843718886375428
0.13409410654143852 0.11637451946735382
0.13361512158404698 0.1179194137454033
0.13292281177233567 0.1194350078701973
0.1319918412376534 0.11697397083044052
0.13167967173186215 0.12017538100481033
0.130808850242333 0.11652384251356125
0.13043641129677946 0.1153097927570343
0.13024590266021815 0.11446817219257355
0.130061324685812 0.11709479987621307
0.130073162981055 0.11391423344612121
0.12950011105699974 0.11206548511981965
0.13021809692409905 0.11904901266098022
0.12815347974273292 0.11377703696489334
0.12853462570770222 0.11317449510097503
0.12742451646111227 0.112788887321949
0.12684285708449103 0.11283863931894303
0.12578559683805163 0.11467022746801377
0.1265282497148622 0.11257333606481552
0.12580017254433848 0.11271518170833587
0.12554797326976602 0.11130319982767105
0.12473645603114908 0.1097388967871666
0.12493857555091381 0.10854545831680298
0.12513330003077333 0.11696712970733643
0.12395249713550914 0.11023311167955399
0.12377377633344043 0.11004006415605545
0.12428667718036608 0.1109105482697487
0.12467433783141049 0.10893284678459167
0.12464673529294404 0.10797019451856613
0.12704786963083528 0.10987961143255234
0.12290492619980466 0.1080960437655449
0.12387504665689035 0.10938373357057571
0.12323602322827686 0.10877297073602676
0.12146576951173219 0.10730156302452087
0.12116476351564581 0.10670964270830155
0.12174756435508077 0.10780156701803208
0.1216072892262177 0.10891516506671906
0.12132698585363952 0.10605861395597457
0.12079528871585023 0.10778491199016571
0.1217989581213756 0.10581764578819275
0.12058602510528131 0.10705460458993912
0.12027758038179441 0.10917174071073532
0.11995236965065653 0.10588860958814621
0.12094803289933638 0.10634130090475083
0.11953421140258963 0.10450926721096039
0.11929271793500944 0.1084667757153511
0.1205887079916217 0.1063476786017418
0.12046277201311155 0.10602716952562333
0.1201955738731406 0.10688344538211822
0.11970599029551852 0.14211844205856322
0.11910621144554832 0.10437543839216232
0.11898462237282233 0.10643496513366699
0.11827049489048394 0.10780262649059295
0.11830194108188152 0.10818524062633514
0.11749104274944826 0.11462069451808929
0.11942329901185902 0.1050525426864624
0.11699759011918848 0.1028191551566124
0.1174289540133693 0.10647096931934356
0.11793192035772583 0.10646256655454636
0.11871163140643727 0.1021390900015831
0.11690362407402559 0.10241083055734634
0.1172288390384479 0.10228880196809768
0.11620312624356964 0.10454823970794677
0.11635487458922646 0.10588160753250123
0.1163613482971083 0.1045205757021904
0.11616209623488513 0.10944675803184509
0.11552522822537205 0.10345993340015411
0.11620161563835361 0.10437244772911072
0.11632397923279893 0.10239968448877335
0.11582291922108694 0.10146709382534028
0.11509321291338313 0.10210858881473542
0.11563881520520557 0.104224094748497
0.11421793462200598 0.11203361302614212
0.11516633274202998 0.10336451530456543
0.11457336219874295 0.10538676679134369
0.11388762549243191 0.09985201358795166
0.11434003575281664 0.10144211947917939
0.11486512574959885 0.1048298418521881
0.11460831558162515 0.10331473499536514
0.11489140970463102 0.10530979037284852
0.11470201780850237 0.0993671715259552
0.11515660397708416 0.10160238444805145
0.11334630237384276 0.10303576886653901
0.11425901407545264 0.10397827178239823
0.11329932256855747 0.10302326083183289
0.113676421682943 0.10500469207763671
0.11309896782040596 0.1051903635263443
0.11374746313826604 0.10465180277824401
0.11218287897380916 0.09934555739164352
0.11250616068189795 0.1030606597661972
0.1139762472699989 0.10329330265522003
0.11400351656431501 0.11215079128742218
0.11534698002717712 0.0978933483362198
0.11244586143981326 0.10813827812671661
0.11193760196593674 0.10014003962278366
0.11205315488305959 0.10688326358795167
0.11164672181687572 0.10277400463819504
0.11210490949451923 0.1005371406674385
0.11226984265853059 0.10247966051101684
0.11215402152050626 0.272650945186615
0.11315432258627632 0.09941665828227997
0.11098209277472713 0.09854587465524674
0.11081342636184259 0.10033192336559296
0.11087457632476633 0.09895814657211303
0.10949668660759926 0.10031943917274475
0.10953853160820225 0.0991149440407753
0.10984669405628335 0.0995338186621666
0.10920059934935787 0.09784251749515534
0.10900745591656728 0.10017871111631393
0.10939734666184946 0.09833496659994126
0.10933191295374524 0.09919689893722534
0.11043279025365006 0.09892708957195281
0.10966046916490252 0.10216407328844071
0.1100684426386248 0.09785811454057694
0.1102135396477851 0.09964010119438171
0.10895686224102974 0.09822154492139816
0.10984495299106295 0.09829274266958236
0.10955158451741392 0.0996590182185173
0.10967184992676432 0.10112935453653335
0.10927454246716066 0.10097425580024719
0.10913497920740735 0.09822742044925689
0.10898844220421532 0.09795099347829819
0.10866264914247123 0.09898477792739868
0.10893641818653453 0.09906956851482392
0.10873737795786424 0.09960693120956421
0.1080790265378627 0.09812141805887223
0.10966605235907165 0.09894365817308426
0.10808651250871745 0.10016445070505142
0.10909082859077236 0.10029624849557876
0.10828331553123215 0.09896694123744965
0.1091912981461395 0.09885203391313553
0.10944832929156044 0.0980866014957428
0.10847922973334789 0.09953484535217286
0.10836791873655537 0.09835959523916245
0.10836702991615642 0.09879339337348939
0.10901930725032632 0.09893443882465362
0.10826089470223947 0.09851028025150299
0.10816097462719138 0.09918840676546097
0.10822306776588614 0.09895491600036621
0.10835392976349051 0.09852397292852402
0.10916031812402335 0.09800790995359421
0.10878622277893803 0.09832296371459961
0.10781540179794485 0.09831372648477554
0.10924313302067193 0.09880816787481309
0.10782262056388638 0.09806509166955948
0.10798419876532121 0.09815126210451126
0.10822674886069515 0.09856587797403335
0.10869203101504933 0.09929108321666717
0.10873009332201698 0.09888054877519607
0.10911826586181467 0.0998911663889885
0.10821382278068499 0.09760093539953232
