0.5078386799855665 0.26829399466514586
0.2250455983660438 0.18650094866752626
0.19410600140690804 0.16673027575016022
0.18232011591846292 0.16006491482257842
0.17805855822834102 0.15743334889411925
0.17415398020635953 0.15321897566318513
0.17181544479998676 0.1503852814435959
0.16933445700190283 0.14873533248901366
0.16764751449227333 0.14753338098526
0.1660279231992635 0.14647655487060546
0.16537843068892305 0.14488951563835145
0.1647682779214599 0.14471391439437867
0.16261080398478292 0.14382981061935424
0.1621010151099075 0.14241050481796264
0.1624278903684833 0.14147579967975615
0.16185205328193578 0.14071145057678222
0.15972227298400618 0.13931147158145904
0.1588863537392833 0.13873760402202606
0.15806765922091223 0.1383117213845253
0.15871606530113655 0.13683810830116272
0.15583720870993353 0.13596805632114412
0.15583966604687952 0.13598936945199966
0.15408758954568344 0.1339549034833908
0.1539447375319221 0.1332002177834511
0.15358713269233704 0.13326703310012816
0.15098790688948197 0.13134505450725556
0.15065119415521622 0.13065118491649627
0.15073944120244545 0.13001712113618852
0.14944748072461647 0.13041878640651702
0.14776472239331764 0.12836012989282608
0.14684022217988968 0.12774476110935212
0.14757860181006519 0.12850050628185272
0.1473091786557978 0.1269698217511177
0.14521572942083533 0.12596900761127472
0.14453390206802974 0.12527759820222856
0.14345019513910467 0.12619090527296067
0.14224315417761152 0.1234468549489975
0.14288186485117133 0.12329241931438446
0.14206428317861122 0.12423040568828583
0.14192422445524822 0.12466718256473541
0.14040158756754614 0.12217419892549515
0.1398346833884716 0.12182127833366393
