0.5078386799855665 0.26829399466514586
0.2250455983660438 0.18650094866752626
0.19410600140690804 0.16673027575016022
0.18232011591846292 0.16006491482257842
0.17805855822834102 0.15743334889411925
0.17415398020635953 0.15321897566318513
0.17181544479998676 0.1503852814435959
0.16933445700190283 0.14873533248901366
