0.5078386799855665 0.26829399466514586
0.2250455983660438 0.18650094866752626
0.19410600140690804 0.16673027575016022
0.18232011591846292 0.16006491482257842
0.17805855822834102 0.15743334889411925
0.17415398020635953 0.15321897566318513
0.17181544479998676 0.1503852814435959
0.16933445700190283 0.14873533248901366
0.16764751449227333 0.14753338098526
0.1660279231992635 0.14647655487060546
0.16537843068892305 0.14488951563835145
0.1647682779214599 0.14471391439437867
0.16261080398478292 0.14382981061935424
0.1621010151099075 0.14241050481796264
0.1624278903684833 0.14147579967975615
0.16185205328193578 0.14071145057678222
0.15972227298400618 0.13931147158145904
0.1588863537392833 0.13873760402202606
0.15806765922091223 0.1383117213845253
0.15871606530113655 0.13683810830116272
0.15583720870993353 0.13596805632114412
0.15583966604687952 0.13598936945199966
0.15408758954568344 0.1339549034833908
0.1539447375319221 0.1332002177834511
0.15358713269233704 0.13326703310012816
0.15098790688948197 0.13134505450725556
0.15065119415521622 0.13065118491649627
0.15073944120244545 0.13001712113618852
0.14944748072461647 0.13041878640651702
0.14776472239331764 0.12836012989282608
0.14684022217988968 0.12774476110935212
0.14757860181006519 0.12850050628185272
0.1473091786557978 0.1269698217511177
0.14521572942083533 0.12596900761127472
0.14453390206802974 0.12527759820222856
0.14345019513910467 0.12619090527296067
0.14224315417761152 0.1234468549489975
0.14288186485117133 0.12329241931438446
0.14206428317861122 0.12423040568828583
0.14192422445524822 0.12466718256473541
0.14040158756754614 0.12217419892549515
0.1398346833884716 0.12182127833366393
0.13974295962940564 0.12209384888410568
0.13854621553962881 0.12198678702116013
0.1381361044266007 0.12087736427783966
0.13766940208998593 0.120941361784935
0.13723800229755315 0.12084931880235672
0.13574180785905232 0.11989488303661347
0.13538675331933933 0.11939051002264023
0.1353073726323518 0.1191483736038208
0.13377143611962145 0.11832701414823532
0.13279968026009473 0.11843718886375428
0.13409410654143852 0.11637451946735382
0.13361512158404698 0.1179194137454033
0.13292281177233567 0.1194350078701973
0.1319918412376534 0.11697397083044052
0.13167967173186215 0.12017538100481033
0.130808850242333 0.11652384251356125
0.13043641129677946 0.1153097927570343
0.13024590266021815 0.11446817219257355
0.130061324685812 0.11709479987621307
0.130073162981055 0.11391423344612121
0.12950011105699974 0.11206548511981965
0.13021809692409905 0.11904901266098022
0.12815347974273292 0.11377703696489334
0.12853462570770222 0.11317449510097503
0.12742451646111227 0.112788887321949
0.12684285708449103 0.11283863931894303
0.12578559683805163 0.11467022746801377
0.1265282497148622 0.11257333606481552
0.12580017254433848 0.11271518170833587
0.12554797326976602 0.11130319982767105
0.12473645603114908 0.1097388967871666
0.12493857555091381 0.10854545831680298
0.12513330003077333 0.11696712970733643
0.12395249713550914 0.11023311167955399
0.12377377633344043 0.11004006415605545
0.12428667718036608 0.1109105482697487
0.12467433783141049 0.10893284678459167
0.12464673529294404 0.10797019451856613
0.12704786963083528 0.10987961143255234
0.12290492619980466 0.1080960437655449
0.12387504665689035 0.10938373357057571
0.12323602322827686 0.10877297073602676
0.12146576951173219 0.10730156302452087
0.12116476351564581 0.10670964270830155
0.12174756435508077 0.10780156701803208
0.1216072892262177 0.10891516506671906
0.12132698585363952 0.10605861395597457
0.12079528871585023 0.10778491199016571
0.1217989581213756 0.10581764578819275
