0.5078386799855665 0.26829399466514586
0.2250455983660438 0.18650094866752626
0.19410600140690804 0.16673027575016022
0.18232011591846292 0.16006491482257842
0.17805855822834102 0.15743334889411925
0.17415398020635953 0.15321897566318513
0.17181544479998676 0.1503852814435959
0.16933445700190283 0.14873533248901366
0.16764751449227333 0.14753338098526
0.1660279231992635 0.14647655487060546
0.16537843068892305 0.14488951563835145
0.1647682779214599 0.14471391439437867
0.16261080398478292 0.14382981061935424
0.1621010151099075 0.14241050481796264
0.1624278903684833 0.14147579967975615
0.16185205328193578 0.14071145057678222
0.15972227298400618 0.13931147158145904
0.1588863537392833 0.13873760402202606
0.15806765922091223 0.1383117213845253
0.15871606530113655 0.13683810830116272
0.15583720870993353 0.13596805632114412
0.15583966604687952 0.13598936945199966
0.15408758954568344 0.1339549034833908
0.1539447375319221 0.1332002177834511
0.15358713269233704 0.13326703310012816
0.15098790688948197 0.13134505450725556
0.15065119415521622 0.13065118491649627
0.15073944120244545 0.13001712113618852
0.14944748072461647 0.13041878640651702
0.14776472239331764 0.12836012989282608
0.14684022217988968 0.12774476110935212
0.14757860181006519 0.12850050628185272
0.1473091786557978 0.1269698217511177
0.14521572942083533 0.12596900761127472
0.14453390206802974 0.12527759820222856
0.14345019513910467 0.12619090527296067
0.14224315417761152 0.1234468549489975
0.14288186485117133 0.12329241931438446
0.14206428317861122 0.12423040568828583
0.14192422445524822 0.12466718256473541
0.14040158756754614 0.12217419892549515
0.1398346833884716 0.12182127833366393
0.13974295962940564 0.12209384888410568
0.13854621553962881 0.12198678702116013
0.1381361044266007 0.12087736427783966
0.13766940208998593 0.120941361784935
0.13723800229755315 0.12084931880235672
0.13574180785905232 0.11989488303661347
0.13538675331933933 0.11939051002264023
0.1353073726323518 0.1191483736038208
0.13377143611962145 0.11832701414823532
0.13279968026009473 0.11843718886375428
0.13409410654143852 0.11637451946735382
0.13361512158404698 0.1179194137454033
0.13292281177233567 0.1194350078701973
0.1319918412376534 0.11697397083044052
0.13167967173186215 0.12017538100481033
0.130808850242333 0.11652384251356125
0.13043641129677946 0.1153097927570343
0.13024590266021815 0.11446817219257355
0.130061324685812 0.11709479987621307
0.130073162981055 0.11391423344612121
0.12950011105699974 0.11206548511981965
0.13021809692409905 0.11904901266098022
0.12815347974273292 0.11377703696489334
0.12853462570770222 0.11317449510097503
0.12742451646111227 0.112788887321949
0.12684285708449103 0.11283863931894303
0.12578559683805163 0.11467022746801377
0.1265282497148622 0.11257333606481552
0.12580017254433848 0.11271518170833587
0.12554797326976602 0.11130319982767105
0.12473645603114908 0.1097388967871666
0.12493857555091381 0.10854545831680298
0.12513330003077333 0.11696712970733643
0.12395249713550914 0.11023311167955399
0.12377377633344043 0.11004006415605545
0.12428667718036608 0.1109105482697487
0.12467433783141049 0.10893284678459167
0.12464673529294404 0.10797019451856613
0.12704786963083528 0.10987961143255234
0.12290492619980466 0.1080960437655449
0.12387504665689035 0.10938373357057571
0.12323602322827686 0.10877297073602676
0.12146576951173219 0.10730156302452087
0.12116476351564581 0.10670964270830155
0.12174756435508077 0.10780156701803208
0.1216072892262177 0.10891516506671906
0.12132698585363952 0.10605861395597457
0.12079528871585023 0.10778491199016571
0.1217989581213756 0.10581764578819275
0.12058602510528131 0.10705460458993912
0.12027758038179441 0.10917174071073532
0.11995236965065653 0.10588860958814621
0.12094803289933638 0.10634130090475083
0.11953421140258963 0.10450926721096039
0.11929271793500944 0.1084667757153511
0.1205887079916217 0.1063476786017418
0.12046277201311155 0.10602716952562333
0.1201955738731406 0.10688344538211822
0.11970599029551852 0.14211844205856322
0.11910621144554832 0.10437543839216232
0.11898462237282233 0.10643496513366699
0.11827049489048394 0.10780262649059295
0.11830194108188152 0.10818524062633514
0.11749104274944826 0.11462069451808929
0.11942329901185902 0.1050525426864624
0.11699759011918848 0.1028191551566124
0.1174289540133693 0.10647096931934356
0.11793192035772583 0.10646256655454636
0.11871163140643727 0.1021390900015831
0.11690362407402559 0.10241083055734634
0.1172288390384479 0.10228880196809768
0.11620312624356964 0.10454823970794677
0.11635487458922646 0.10588160753250123
0.1163613482971083 0.1045205757021904
0.11616209623488513 0.10944675803184509
0.11552522822537205 0.10345993340015411
0.11620161563835361 0.10437244772911072
0.11632397923279893 0.10239968448877335
0.11582291922108694 0.10146709382534028
0.11509321291338313 0.10210858881473542
0.11563881520520557 0.104224094748497
0.11421793462200598 0.11203361302614212
0.11516633274202998 0.10336451530456543
0.11457336219874295 0.10538676679134369
0.11388762549243191 0.09985201358795166
0.11434003575281664 0.10144211947917939
0.11486512574959885 0.1048298418521881
0.11460831558162515 0.10331473499536514
0.11489140970463102 0.10530979037284852
0.11470201780850237 0.0993671715259552
0.11515660397708416 0.10160238444805145
0.11334630237384276 0.10303576886653901
0.11425901407545264 0.10397827178239823
0.11329932256855747 0.10302326083183289
0.113676421682943 0.10500469207763671
0.11309896782040596 0.1051903635263443
0.11374746313826604 0.10465180277824401
0.11218287897380916 0.09934555739164352
0.11250616068189795 0.1030606597661972
0.1139762472699989 0.10329330265522003
0.11400351656431501 0.11215079128742218
0.11534698002717712 0.0978933483362198
0.11244586143981326 0.10813827812671661
0.11193760196593674 0.10014003962278366
0.11205315488305959 0.10688326358795167
0.11164672181687572 0.10277400463819504
0.11210490949451923 0.1005371406674385
0.11226984265853059 0.10247966051101684
0.11215402152050626 0.272650945186615
0.11315432258627632 0.09941665828227997
0.11098209277472713 0.09854587465524674
0.11081342636184259 0.10033192336559296
0.11087457632476633 0.09895814657211303
0.10949668660759926 0.10031943917274475
0.10953853160820225 0.0991149440407753
0.10984669405628335 0.0995338186621666
0.10920059934935787 0.09784251749515534
0.10900745591656728 0.10017871111631393
0.10939734666184946 0.09833496659994126
0.10933191295374524 0.09919689893722534
0.11043279025365006 0.09892708957195281
0.10966046916490252 0.10216407328844071
0.1100684426386248 0.09785811454057694
0.1102135396477851 0.09964010119438171
0.10895686224102974 0.09822154492139816
0.10984495299106295 0.09829274266958236
0.10955158451741392 0.0996590182185173
0.10967184992676432 0.10112935453653335
0.10927454246716066 0.10097425580024719
0.10913497920740735 0.09822742044925689
0.10898844220421532 0.09795099347829819
0.10866264914247123 0.09898477792739868
0.10893641818653453 0.09906956851482392
0.10873737795786424 0.09960693120956421
0.1080790265378627 0.09812141805887223
0.10966605235907165 0.09894365817308426
0.10808651250871745 0.10016445070505142
0.10909082859077236 0.10029624849557876
0.10828331553123215 0.09896694123744965
0.1091912981461395 0.09885203391313553
0.10944832929156044 0.0980866014957428
0.10847922973334789 0.09953484535217286
0.10836791873655537 0.09835959523916245
0.10836702991615642 0.09879339337348939
0.10901930725032632 0.09893443882465362
0.10826089470223947 0.09851028025150299
0.10816097462719138 0.09918840676546097
0.10822306776588614 0.09895491600036621
0.10835392976349051 0.09852397292852402
0.10916031812402335 0.09800790995359421
0.10878622277893803 0.09832296371459961
0.10781540179794485 0.09831372648477554
0.10924313302067193 0.09880816787481309
0.10782262056388638 0.09806509166955948
0.10798419876532121 0.09815126210451126
0.10822674886069515 0.09856587797403335
0.10869203101504933 0.09929108321666717
0.10873009332201698 0.09888054877519607
0.10911826586181467 0.0998911663889885
0.10821382278068499 0.09760093539953232
0.10888746854933826 0.09901719391345978
0.10981534709307281 0.09837238937616348
0.10822657326405699 0.09830034077167511
0.10906100069934671 0.0992901474237442
0.10881307755004276 0.09806323647499085
0.10855283435772765 0.09753998816013336
0.10908871787515553 0.09791874140501022
0.10838170705193823 0.09866285771131515
0.10820113224062053 0.09867933094501495
0.10905477455393835 0.09787607043981553
0.10869084586474029 0.09864111095666886
0.1088611978021535 0.09849075227975845
0.10954673080281778 0.09901904612779618
0.1083208065141331 0.09906542897224427
0.10832731137898835 0.09894555807113647
0.10918774049390446 0.09791433811187744
0.10904680632732132 0.0983830749988556
0.11082880673083392 0.09821512401103974
0.10877370444888418 0.10028661489486694
0.10877148857848211 0.09805315732955933
0.10856665501540358 0.09965557307004928
0.10898338088935072 0.09792332351207733
0.1094026370820674 0.09861950129270554
0.10801857760684057 0.09836724996566773
0.10815671103244479 0.09834222346544266
0.10902257382192394 0.09852029085159301
0.1088224800134247 0.09790183156728745
0.10791651819917289 0.09874819815158845
0.1094594614749605 0.09856723845005036
0.10831857286393642 0.09958927631378174
0.10833556882359764 0.09908724725246429
0.10875254242934963 0.09774975031614304
0.10899154537103393 0.09889429658651352
0.10812722349708731 0.09869834333658219
0.1084010550244288 0.0983651801943779
0.10837674970653924 0.09949847608804703
0.10866092992099849 0.09929902851581573
0.10844142040745779 0.09805608540773392
0.10820446485145525 0.09943675249814987
0.10922852581874891 0.09844832420349121
0.10897074081003666 0.09880372583866119
0.11003670943054286 0.09770815968513488
0.1084101814776659 0.09943990409374237
0.10881090621379289 0.09979189038276673
0.10835216058926149 0.09831636846065521
0.10849091105840424 0.09921974837779998
0.10899458588524298 0.09859198182821274
0.10927088761871512 0.09996843934059144
0.10887777737595818 0.09865317344665528
0.1088530094447461 0.09798877388238907
0.1080160013992678 0.09860055893659592
0.10903066904707388 0.09773401319980621
0.10792578164149415 0.09898748248815536
0.10828435691920194 0.09867878258228302
0.10798204165290702 0.09889081567525863
0.10992829552428289 0.09798162281513215
0.1081782008775256 0.09808888733386993
0.10764054683121768 0.09833053946495056
0.10847446948967197 0.0982657477259636
0.10936424559490247 0.09843460470438004
0.10948056896979158 0.09806057661771775
0.10832017931071194 0.09831693768501282
0.10867502150887792 0.0989108920097351
0.10858473977582021 0.09844352751970291
0.10794504173099995 0.0985210120677948
0.10829568146304651 0.09875186085700989
0.10907687263732607 0.09897498488426208
0.10866488194601102 0.09983119666576386
0.10857969149947166 0.09832599610090256
0.10862244648689573 0.09836051762104034
0.10896154577759179 0.09804397970438003
0.10842896388335661 0.09889402836561204
0.10798233544284647 0.09909197539091111
0.10794814726845785 0.09843533337116242
0.10784748298200694 0.09849555790424347
0.10836748643354936 0.09926643371582031
0.10894839211621067 0.09863711893558502
0.10872695137831298 0.09776379317045211
0.10850345377217639 0.09791745096445084
0.10813674381510778 0.09868776947259902
0.10846179114146666 0.09803723692893981
0.10980155200443485 0.09887203872203827
0.10806157152083787 0.09893914312124252
0.10810245962982828 0.09921926259994507
0.10877220281823115 0.09897658526897431
0.11016882414167578 0.09816101789474488
0.10904438082467426 0.09845324009656906
0.10799986835230481 0.09908069819211959
0.10770551403137771 0.09847198873758316
0.10826958919113333 0.09845442771911621
0.10913313417272134 0.09877731204032898
0.10919229533861984 0.09851942956447601
0.1079896857792681 0.09787906259298325
0.10828250358727845 0.09813664555549621
0.10777884162962437 0.09955870360136032
0.10779232853515582 0.0982319325208664
0.107933044094931 0.09862042516469956
0.1083958800882101 0.0990436166524887
0.10834409635175359 0.09833738803863526
0.1082737564363263 0.09881861507892609
0.10762645608999512 0.09833962768316269
0.10814750702543692 0.0984945148229599
0.10900941304862499 0.09761963337659836
0.10946373980153691 0.0977754220366478
0.1094858053733002 0.10103830695152283
0.109080999920314 0.09815627336502075
0.10928897153247487 0.09766152799129486
0.10806600664826957 0.09871990829706193
0.10838744501498612 0.09977220445871353
0.1091882110658017 0.10106924772262574
0.10803362456235019 0.09814341515302658
0.10872615890746767 0.09908011555671692
0.1082740177146413 0.09839539378881454
0.10868477381088516 0.09908322095870972
0.10896010967818173 0.0986233726143837
0.10801188952543518 0.09816129505634308
0.1084340014918284 0.09948537349700928
0.10833150368522514 0.09876935184001923
0.10837746868756684 0.09946125000715256
0.10816262814808976 0.09877587407827378
0.10840317217463796 0.09954017996788025
0.10852498662742702 0.09867748618125916
0.10874683579260652 0.09846326410770416
0.10862526822496545 0.0991368368268013
0.10992299680682746 0.09775594025850295
0.10898858596655456 0.0981249526143074
0.10798217423937538 0.09897140562534332
0.10947873324833134 0.09948762506246567
0.10897152058102867 0.09823130816221237
0.10870342007414861 0.09816023111343383
0.10819470171223987 0.09771865606307983
0.10929197326979855 0.09959536492824554
0.10834476233206013 0.09867460429668426
0.10835856182331388 0.09811897575855255
0.10893675210801038 0.09817707687616348
0.10833926922218366 0.09860910773277283
0.10868762789124792 0.0987942099571228
0.10877745971083641 0.09883246570825577
0.10925324244255369 0.09895358234643936
0.10803184082562273 0.0977233111858368
0.10835774666206403 0.0976437821984291
0.10864431681958112 0.09779084026813507
0.10940133323046294 0.09831820577383041
0.10902862470935691 0.09915342181921005
0.10847403583201495 0.09972918629646302
0.10852959261021831 0.09829660207033157
0.10859606685963544 0.09856165498495102
0.10836114124818282 0.09887068420648575
0.10935421118682082 0.09848744124174118
0.10886945169080388 0.0975915402173996
0.10833922773599625 0.09771011918783187
0.10909719358791005 0.0983777478337288
0.10843338986689394 0.09810755401849747
0.10799532959407027 0.09796748161315919
0.10882613587785851 0.09975718557834626
0.10787323422052643 0.09844754487276078
0.10770508511499925 0.0989357203245163
0.10798815163699063 0.09808457493782044
0.1089023578573357 0.09785826355218888
0.10867317986081947 0.09831005036830902
0.1080820035528053 0.09827023893594741
0.1092652531171387 0.09857007414102555
0.10830048319290984 0.09804270714521408
0.10829799639230425 0.09872834235429764
0.10851300778714093 0.09838035255670548
0.10797734152187001 0.09980355352163314
0.10903293097561056 0.09846463799476624
0.10875217752023177 0.09754396975040436
0.1079507205973972 0.09908856898546219
0.10790434496646578 0.09813259840011597
0.10804395648566159 0.0992227017879486
0.10817315158518878 0.09795995056629181
0.10827178254046223 0.0985144168138504
0.10791888477450068 0.09885062724351883
0.10806540823118253 0.09825408458709717
0.1098037509416992 0.099761264026165
0.10822291621430354 0.098295396566391
0.10844979858533903 0.0976386159658432
0.1086670405824076 0.09841188341379166
0.10835409418425777 0.09811518788337707
0.10885146175595847 0.09891441017389298
0.10826386765322903 0.09839896708726883
0.10811533660373905 0.09856963902711868
0.10904874263161962 0.09825816303491593
0.10812818970192563 0.0992948979139328
0.10804803601720116 0.09894162118434906
0.10833638009022582 0.09997973889112473
0.10864567282524976 0.09916884899139404
0.10830069841309027 0.09839452505111694
0.10962031358344988 0.09788092821836472
0.10957026346163316 0.09823400974273681
0.1079885566776449 0.09863517433404922
0.10802202671766281 0.09765108972787857
0.10827909257601608 0.09843025356531143
0.1083161360160871 0.09827666878700256
0.10909931700338017 0.09836775213479995
0.10814595273272558 0.09860501140356064
0.10983997430991042 0.09814738631248474
0.10781027071855286 0.09846883118152619
0.1090865025127476 0.09831994324922562
0.10832152566449209 0.09943485110998154
0.10828586329113353 0.09928122907876968
0.10888929072428834 0.09839215129613876
0.10891868732869625 0.09844703078269959
0.10818276825276288 0.09957577437162399
0.10836685076355934 0.09892523437738418
0.10845023427497257 0.09868210852146149
0.10880776765671643 0.09880824238061905
0.10823247209191322 0.09939769953489304
0.10835655998777259 0.09838578701019288
0.10824361240321939 0.09829433113336564
0.10822855359451337 0.09851714223623276
0.10837324420836839 0.09841693043708802
0.10782605206424539 0.09855295270681382
0.10925836708735336 0.09879023730754852
0.1100349725986069 0.0974161982536316
0.10768558034165339 0.09852798581123352
0.10817721553824165 0.09812734127044678
0.10841857760467312 0.09875606000423431
0.10870659351348877 0.09791960567235947
0.10821910185570066 0.09898182153701782
0.10883757658302784 0.09865142703056336
0.10967806912958622 0.09993645399808884
0.10826791755177757 0.09851739406585694
0.1091088501905853 0.09925089329481125
0.10827624154361812 0.09896092712879181
0.10876735672354698 0.09791866838932037
0.10942700589922341 0.09838729947805405
0.10827271115373481 0.09922279417514801
0.10781351646239107 0.09803504049777985
0.10981654206460173 0.09760843515396118
0.10912201756780798 0.09827850908041
0.10863312977281483 0.09953260123729706
0.10786665078591216 0.09791079610586166
0.1086563750762831 0.09890889823436737
0.10943638482554392 0.10027952492237091
0.10777064395899122 0.09873117506504059
0.10858036459169605 0.09842032641172409
0.10973376221954823 0.09853508025407791
0.10914974710480733 0.09842784851789474
0.10831626132130623 0.09844429492950439
0.1088040316985412 0.09953270256519317
0.10849973576312716 0.0982399582862854
0.10921893319623037 0.09876311123371125
0.10849247720431197 0.09803068488836289
0.10915446924892339 0.09877184927463531
0.10940294137055223 0.09788516759872437
0.10843747126107867 0.09771952033042908
0.10830560462041335 0.0984796941280365
0.10930066098543731 0.09881686866283416
0.10874611088498072 0.10051044672727585
0.10818719101900404 0.09831203520298004
0.10854019173844294 0.09835907518863678
0.10837167755446651 0.09788047820329666
0.10925147513096983 0.09860480725765228
0.10776694186709145 0.09923239946365356
0.10876878164708614 0.09832797795534134
0.10886157676577568 0.09801474064588547
0.10856235670772466 0.09824769347906112
0.10853727991608056 0.0993743509054184
0.10943630151450634 0.10063546299934387
0.10855174166235057 0.09871357083320617
0.10902557166462595 0.09893032759428025
0.10801418701356108 0.09915727823972702
0.10879948261109265 0.09834428578615188
0.10826249437575991 0.09871496111154557
0.10829550451175733 0.09893005192279816
0.10813220844350079 0.09811787009239196
0.10893666845831004 0.09858118891716003
0.10808715376664292 0.09894898682832717
0.10968669097531926 0.09878735989332199
0.10793296264653857 0.0985087737441063
0.108290463516658 0.09811534583568574
0.1094743467190049 0.09824103564023971
0.10870165648785504 0.09850846827030182
0.10890075649050149 0.09846329689025879
0.1083755422044884 0.09796239137649536
0.10853944888169115 0.09828188866376877
0.10819301043044437 0.09845075309276581
0.10982860370793125 0.09880625158548355
0.10895448059520939 0.09847383201122284
0.1085933018475771 0.09860627055168152
0.10833296620033005 0.09915022104978562
0.10991683974862099 0.09898900091648102
0.10823345827785405 0.09873914271593094
0.10914645496417176 0.09911617934703827
0.10824631781063297 0.09843768030405045
0.10931656662036073 0.09859134107828141
0.10793818059292706 0.09862459450960159
0.10874603993513367 0.1000227838754654
0.10852984626862136 0.09802658557891845
0.10816502215510065 0.09825336039066315
0.1081390440125357 0.09793970733880997
0.10889004611156204 0.09866527915000915
0.10953070714392445 0.09772623032331466
0.10852556303143501 0.09974596947431565
0.10788168317892334 0.09926513284444809
0.10843090154230595 0.09941113740205765
0.10860320333052766 0.09801112413406372
0.10797792402180759 0.09827782511711121
0.10792846808379347 0.09889730960130691
0.10923377881673249 0.09849953204393387
0.1080685117366639 0.09875375032424927
0.1082571992142634 0.10057408511638641
0.10804868760434064 0.09846815317869187
0.10987998341972177 0.09783609509468079
0.10885874774645675 0.09788090735673904
0.1080804592506452 0.09927699118852615
0.10854449902068485 0.09818461388349534
0.10785244489935311 0.0977607935667038
0.10904122770509937 0.1002070426940918
0.10891888510774482 0.09890372902154923
0.10855656303465366 0.09974723756313324
0.10859661566262896 0.0992372527718544
0.1078623387623917 0.09922196120023727
0.10862411101433364 0.09927680492401122
0.10858330130577087 0.09815728068351745
0.10848027975721793 0.09946251660585403
