0.29762277684428473 0.1655676156282425
0.1673404953696511 0.27708947360515596
0.15430895374579864 0.30483879446983336
0.15040137686512686 0.32380868792533873
0.1451104503463615 0.21083831787109375
0.1394356113265861 0.3478505969047546
0.13721642236817966 0.27436410784721377
0.1368129959499294 0.2056952476501465
0.1303639290007678 0.2283880352973938
0.130347359248183 0.2588627368211746
