0.28890937769954855 0.19608041942119597
0.17434205656701868 0.19376379549503325
0.16579127751968123 0.1455889254808426
0.15723666988990523 0.14515098333358764
0.15364417840134015 0.16154299974441527
0.14818567477843977 0.16881424486637114
0.144207952036099 0.1269955024123192
0.1428272043439475 0.13425495028495787
0.13719098168340596 0.14556874930858613
0.13518557223406705 0.14630235433578492
0.13319686715575782 0.14654336869716644
0.1311248385093429 0.19966738820075988
0.12981009703468194 0.13486099243164062
0.12779142504388635 0.12235326766967773
0.12949803099036217 0.1792293131351471
0.1281002446670424 0.12926028966903685
0.12488131733103232 0.14507062435150148
0.12229237688535993 0.13601550161838533
0.12864196859300137 0.11876198947429657
0.12238266403702172 0.11778499186038971
0.12318381717936559 0.354413104057312
0.12262844328175891 0.1732694149017334
0.12188698046586731 0.11078183054924011
0.12174777855927293 0.1287526085972786
0.11797592094676061 0.132509346306324
0.11837432245639237 0.17527128159999847
0.1312709249217402 0.13884521126747132
0.12110396525399252 0.13000967502593994
0.119096952913837 0.11819965988397599
0.11647124351425604 0.1367647558450699
0.11700694584711031 0.11165126711130142
0.11682734824717045 0.11859060674905778
0.1162783107296987 0.11050970703363419
0.11709564585577358 0.11884289830923081
0.11721989410844716 0.11061843037605286
0.11676200597800991 0.11704830080270767
0.11782142536884005 0.17318022549152373
0.11723962917246601 0.12477946728467941
0.1187249372967265 0.1334672152996063
0.11634789356453852 0.25970124304294584
