0.28890937769954855 0.19608041942119597
0.17434205656701868 0.19376379549503325
0.16579127751968123 0.1455889254808426
0.15723666988990523 0.14515098333358764
0.15364417840134015 0.16154299974441527
0.14818567477843977 0.16881424486637114
0.144207952036099 0.1269955024123192
0.1428272043439475 0.13425495028495787
0.13719098168340596 0.14556874930858613
0.13518557223406705 0.14630235433578492
0.13319686715575782 0.14654336869716644
0.1311248385093429 0.19966738820075988
0.12981009703468194 0.13486099243164062
0.12779142504388635 0.12235326766967773
0.12949803099036217 0.1792293131351471
0.1281002446670424 0.12926028966903685
0.12488131733103232 0.14507062435150148
0.12229237688535993 0.13601550161838533
0.12864196859300137 0.11876198947429657
