0.28890937769954855 0.19608041942119597
0.17434205656701868 0.19376379549503325
0.16579127751968123 0.1455889254808426
0.15723666988990523 0.14515098333358764
0.15364417840134015 0.16154299974441527
0.14818567477843977 0.16881424486637114
0.144207952036099 0.1269955024123192
