0.28890937769954855 0.19608041942119597
0.17434205656701868 0.19376379549503325
0.16579127751968123 0.1455889254808426
0.15723666988990523 0.14515098333358764
0.15364417840134015 0.16154299974441527
0.14818567477843977 0.16881424486637114
0.144207952036099 0.1269955024123192
0.1428272043439475 0.13425495028495787
0.13719098168340596 0.14556874930858613
0.13518557223406705 0.14630235433578492
0.13319686715575782 0.14654336869716644
0.1311248385093429 0.19966738820075988
0.12981009703468194 0.13486099243164062
0.12779142504388635 0.12235326766967773
0.12949803099036217 0.1792293131351471
0.1281002446670424 0.12926028966903685
0.12488131733103232 0.14507062435150148
0.12229237688535993 0.13601550161838533
0.12864196859300137 0.11876198947429657
0.12238266403702172 0.11778499186038971
0.12318381717936559 0.354413104057312
0.12262844328175891 0.1732694149017334
0.12188698046586731 0.11078183054924011
0.12174777855927293 0.1287526085972786
0.11797592094676061 0.132509346306324
0.11837432245639237 0.17527128159999847
0.1312709249217402 0.13884521126747132
0.12110396525399252 0.13000967502593994
0.119096952913837 0.11819965988397599
0.11647124351425604 0.1367647558450699
0.11700694584711031 0.11165126711130142
0.11682734824717045 0.11859060674905778
0.1162783107296987 0.11050970703363419
0.11709564585577358 0.11884289830923081
0.11721989410844716 0.11061843037605286
0.11676200597800991 0.11704830080270767
0.11782142536884005 0.17318022549152373
0.11723962917246601 0.12477946728467941
0.1187249372967265 0.1334672152996063
0.11634789356453852 0.25970124304294584
0.11824874427508224 0.13482648134231567
0.11880113912576978 0.15920753180980682
0.11704307625239546 0.14343979060649872
0.11422026987102898 0.2098916858434677
0.11367118426344612 0.11393801718950272
0.11229602992534637 0.1027675747871399
0.11219643903049556 0.13360425382852553
0.12103257209739902 0.17280540764331817
0.11727096004919572 0.12629744559526443
0.11484199711544947 0.15425303280353547
0.11593746952712536 0.10365921556949616
0.11573370461436835 0.12923888117074966
0.11396811750124801 0.1788979083299637
0.11239124123345721 0.16583332121372224
0.11402271349321712 0.13426414430141448
0.11403584751215848 0.2076173573732376
0.11856286583298986 0.11644947528839111
0.11928511089221998 0.11548818796873092
0.11255623891272327 0.14631540477275848
0.11376675099811771 0.10406586527824402
0.11310942030765793 0.10275676399469376
0.11287314631044865 0.15627472400665282
0.11108035120097073 0.10281586796045303
0.10925075716593048 0.13435091823339462
0.11316859400407835 0.15065038204193115
0.11309650320221078 0.2925645291805267
0.1132518622008237 0.21084074676036835
0.11643813872201876 0.11029579639434814
0.11264060014350848 0.13013936281204225
0.11283594251356342 0.11969746202230454
0.11202542348341508 0.19499631226062775
0.11282559890638698 0.14430002272129058
0.1158497966825962 0.2862612247467041
0.11004204286093061 0.12384340167045593
0.10954947464845398 0.10548222213983535
0.1095406160774556 0.13467885106801986
0.108653848990798 0.22592715919017792
0.10564549233425748 0.09187640994787216
0.10217698646539991 0.09385212808847428
0.10123786668885838 0.09464505910873414
