0.29535777189514856 0.22602682709693908
0.1685468259860169 0.1845090299844742
0.1629181947897781 0.19780400693416594
0.15399010530249638 0.14835150241851808
0.15002316575158725 0.1568078100681305
0.14842439849268307 0.153085857629776
0.15332605892961676 0.16608057022094727
0.14268900216980415 0.1553527981042862
0.13824849846688184 0.15975585877895354
0.13595661029896952 0.1753814399242401
0.13548976555466652 0.15260525643825532
0.13281053897332062 0.20065414011478425
0.13080892627212135 0.1363031044602394
0.13083632950755683 0.12176291644573212
0.12795662084086376 0.15476905107498168
0.1280446619811383 0.1834486961364746
0.1268928465856747 0.2710777252912521
0.12495763058012183 0.14281102120876313
0.1253649704158306 0.13287298679351806
0.12573998743160206 0.1685964733362198
0.12294377826831558 0.32052823305130007
0.12464764138514345 0.22287672758102417
0.12150303240526807 0.11710223406553269
0.12052021209489215 0.17524295151233674
0.12159038572148843 0.14830594956874849
0.12376076474108479 0.13916066735982896
0.11888910813087766 0.11635334193706512
0.11941634965213863 0.22615048587322234
0.11760205826298757 0.13501823842525482
0.1182247879491611 0.1262731745839119
0.11731353757733648 0.17226916551589966
0.1166341199793599 0.14456436187028884
0.12145133722912181 0.2712017327547073
0.1496688671071421 0.15395503342151642
0.1402024867182428 0.3093916952610016
0.13300004652277989 0.1804644674062729
0.12936314652589234 0.23369893729686736
0.12690395658666437 0.14767851531505585
0.13550348935479467 0.12309348583221436
0.12588264573026786 0.2832923918962479
0.12379303862425414 0.13359629660844802
0.12264273637397723 0.16198073625564574
0.12237268754027107 0.11186306476593018
