0.29535777189514856 0.22602682709693908
0.1685468259860169 0.1845090299844742
0.1629181947897781 0.19780400693416594
0.15399010530249638 0.14835150241851808
0.15002316575158725 0.1568078100681305
0.14842439849268307 0.153085857629776
0.15332605892961676 0.16608057022094727
0.14268900216980415 0.1553527981042862
0.13824849846688184 0.15975585877895354
0.13595661029896952 0.1753814399242401
0.13548976555466652 0.15260525643825532
0.13281053897332062 0.20065414011478425
0.13080892627212135 0.1363031044602394
