0.29535777189514856 0.22602682709693908
0.1685468259860169 0.1845090299844742
0.1629181947897781 0.19780400693416594
0.15399010530249638 0.14835150241851808
0.15002316575158725 0.1568078100681305
0.14842439849268307 0.153085857629776
0.15332605892961676 0.16608057022094727
0.14268900216980415 0.1553527981042862
0.13824849846688184 0.15975585877895354
0.13595661029896952 0.1753814399242401
0.13548976555466652 0.15260525643825532
0.13281053897332062 0.20065414011478425
0.13080892627212135 0.1363031044602394
0.13083632950755683 0.12176291644573212
0.12795662084086376 0.15476905107498168
0.1280446619811383 0.1834486961364746
0.1268928465856747 0.2710777252912521
0.12495763058012183 0.14281102120876313
0.1253649704158306 0.13287298679351806
0.12573998743160206 0.1685964733362198
0.12294377826831558 0.32052823305130007
0.12464764138514345 0.22287672758102417
0.12150303240526807 0.11710223406553269
0.12052021209489215 0.17524295151233674
0.12159038572148843 0.14830594956874849
0.12376076474108479 0.13916066735982896
0.11888910813087766 0.11635334193706512
0.11941634965213863 0.22615048587322234
0.11760205826298757 0.13501823842525482
0.1182247879491611 0.1262731745839119
0.11731353757733648 0.17226916551589966
0.1166341199793599 0.14456436187028884
0.12145133722912181 0.2712017327547073
0.1496688671071421 0.15395503342151642
0.1402024867182428 0.3093916952610016
0.13300004652277989 0.1804644674062729
0.12936314652589234 0.23369893729686736
0.12690395658666437 0.14767851531505585
0.13550348935479467 0.12309348583221436
0.12588264573026786 0.2832923918962479
0.12379303862425414 0.13359629660844802
0.12264273637397723 0.16198073625564574
0.12237268754027107 0.11186306476593018
0.11990524794567715 0.12032398283481598
0.12368528155440633 0.15070850551128387
0.12026616168970411 0.11904141455888748
0.1190728098154068 0.18158940374851226
0.12034238383851269 0.11877110600471497
0.11715819263322787 0.1651696592569351
0.11715353686701167 0.14322910010814666
0.11786335452713749 0.13490060716867447
0.1188220911743966 0.15414877533912658
0.11727309684184464 0.1509317636489868
0.13690970262343233 0.1438797652721405
0.12640655718066476 0.3397601664066315
0.12479190579192205 0.3145613491535187
0.12047597325660965 0.22681711614131927
0.14064204997637056 0.3467511773109436
0.12966620566492731 0.12821408361196518
0.12273901159113104 0.1539347678422928
0.11919790133833885 0.1216284155845642
0.11893998272716999 0.10553090870380402
0.11774696155705235 0.10374875515699386
0.11610218425366012 0.10707115232944489
0.11597389490766959 0.10174774378538132
