0.23835328420003254 0.17067262530326843
0.16213544768095017 0.1604769159356753
0.15182596135139464 0.15889133085807164
0.14334475014607112 0.15605206231276195
0.13831148823102316 0.1587364607055982
0.13424813356002172 0.15908724665641785
0.13087954916556677 0.16157384584347406
0.12836854700247446 0.1610618598262469
0.1264034232099851 0.15945439914862314
0.12430913589398067 0.16511854877074558
