0.23835328420003254 0.17067262530326843
0.16213544768095017 0.1604769159356753
0.15182596135139464 0.15889133085807164
0.14334475014607112 0.15605206231276195
0.13831148823102316 0.1587364607055982
0.13424813356002172 0.15908724665641785
0.13087954916556677 0.16157384584347406
0.12836854700247446 0.1610618598262469
0.1264034232099851 0.15945439914862314
0.12430913589398067 0.16511854877074558
0.12248671193917593 0.16832119206587473
0.12129281451304753 0.15811480353275933
0.12006914436817169 0.15591193983952203
0.11848259741067886 0.1592925927042961
0.11834652584791183 0.15815859019756318
0.11697822962204615 0.15560730864604314
0.11602430897951126 0.15907463043928147
0.11552306244770685 0.16009751657644908
0.11511736178398133 0.16113737642765044
0.11420966885487238 0.1577363755305608
0.11290495830774307 0.16264787038167317
0.11299955906470617 0.16104634632666906
0.11178517810503642 0.15686328013737996
0.11121948083241781 0.15646003266175587
0.11097110372781753 0.15633367776870727
0.11048219001293183 0.15673106163740158
0.11008592393000921 0.15478718211253484
0.1093531760374705 0.15708057324091593
0.10872203564643859 0.16071773370107015
0.10844359745581945 0.15750890453656516
0.10817794410387675 0.153683931628863
0.10804184071222941 0.1627451761563619
0.10744954601923624 0.1561779444416364
0.10726589657862981 0.15507212460041045
0.1066829750140508 0.15712029496828714
0.10642869899670283 0.1549461230635643
0.10579408365488052 0.15824165989955266
0.10574118932088217 0.16210105488697688
0.10529867456356684 0.1545887432495753
0.10493694494167964 0.15788837681214016
0.10461637749274572 0.15952062060435612
0.10434347647428513 0.16312255362669628
0.1047956980864207 0.15851411859194436
0.10452710529168446 0.15822178343931834
0.10471032108863194 0.16301722367604574
0.1038079752723376 0.17553419758876165
0.10379244071245193 0.1592730344335238
0.0978746375242869 0.15604583630959193
0.09740598764022192 0.15829127569993337
0.09687012934684754 0.1590075025955836
0.09694037141402563 0.15536812682946524
0.09664591878652573 0.16152404755353927
0.09656371289491654 0.16062524179617563
0.0962393824060758 0.1624309589465459
0.09614325900872549 0.1578076684474945
0.09606807140509288 0.15659241219361622
0.09591415735085805 0.156320328215758
0.09582124052445094 0.15679423809051513
0.09585733860731124 0.15982261498769124
0.09547099775075912 0.16415077616771062
0.095659304300944 0.16037655721108118
0.0953178006807963 0.16300785581270855
0.09516472695271175 0.16221178839604058
0.09274338201681773 0.158445760011673
0.09191094295183817 0.15817194759845735
0.09236194447676341 0.16070550183455148
0.09197318092981974 0.15903066347042719
0.09143600736061731 0.15929656465848288
0.0914019796649615 0.15881455739339193
0.0912994523247083 0.16103137363990147
0.09131178486347198 0.1600430825352669
0.09135811867316564 0.15986730227867763
0.09125714159011841 0.15900173763434092
0.0909751469095548 0.16006919105847678
0.0908274496793747 0.1596001023054123
0.09154155814647674 0.16009210377931596
0.09086829861005147 0.1590450417995453
0.09118425540129343 0.16083719034989674
0.09120577184359233 0.15828768213589986
0.0899872345328331 0.16006911416848502
0.08937074583768845 0.1600439872344335
0.09013440211613973 0.16009539385636648
0.08971288232008616 0.16030500670274098
0.08985056742032368 0.16004550317923227
0.089584344993035 0.16100216617186863
0.08963324304421742 0.1599626821279526
0.08964947493871053 0.16015774846076966
0.08915454743305842 0.16049468417962393
0.08988462551434835 0.1607592694958051
0.08956600948174795 0.1623981742064158
0.08938044162591298 0.16043245047330856
0.0898384308218956 0.16157830437024434
0.08977764342228571 0.16050257176160812
0.08946572214365006 0.16087916652361553
0.08950737355152766 0.16058848162492118
0.08932352600495021 0.16021344502766927
0.08939357537031174 0.16142815281947454
0.088736807346344 0.16124096463123958
0.0888425033489863 0.16083072115977606
0.08944877074162165 0.1614825916290283
0.08943309191862742 0.16102104445298512
0.0891207047700882 0.16156411429246267
0.08934952219327291 0.1611636612812678
0.08903001566727956 0.16065774619579315
0.08914369237422944 0.1605120411515236
0.08942805087566376 0.1605182112256686
0.08920766025781632 0.16097902397314706
0.08908407058318456 0.15981644839048387
0.08902538911501566 0.16215517699718476
0.08846417431036631 0.1608702951669693
0.08910224107901256 0.16191432962814967
0.08922483312090237 0.16076780925194423
0.08896672451496124 0.1608117856582006
0.08900043507417044 0.1620008467634519
0.0893568762143453 0.16196681906779606
0.08937546318769454 0.16107156892617544
0.08938284872968992 0.16023582488298416
0.08911157417297363 0.16069319595893225
0.0890154833594958 0.16021621495485305
0.08892836020390192 0.16105965385834375
0.08923067224025727 0.16025425642728805
0.08933263727029164 0.16002348879973094
0.08928276000420253 0.16109812120596567
0.0893376238544782 0.1600795633594195
0.08916538470983505 0.16113678087790806
0.08915645080804825 0.1612656311194102
0.08902597151199977 0.16135189870993297
0.0891361009478569 0.16008206824461618
0.08897896138827006 0.16166525602340698
0.08897704583406449 0.1628154371182124
0.08871235445141792 0.16172022104263306
0.08924820844332378 0.16189128339290618
0.08907246088981628 0.1618946349620819
0.0888356253306071 0.16056104997793832
0.08886443376541138 0.1613663915793101
0.0890027536948522 0.16137888610363008
0.08933496121565501 0.16102315485477448
0.08930468946695327 0.16001747886339823
0.0889840105175972 0.1601256745060285
0.08931288488705953 0.16110125174125037
0.08907112701733907 0.16117048114538193
0.0891200445095698 0.1610836390654246
0.08851182806491852 0.16109058727820713
0.08929813363154729 0.1616492575407028
0.08883992830912273 0.16111432234446207
0.08914159001906713 0.1608543504277865
0.0889353420138359 0.16035626113414764
0.08876209606726965 0.1611210591594378
0.08902118688821793 0.1619760333498319
0.08895220973094305 0.1610388673345248
