0.23835328420003254 0.17067262530326843
0.16213544768095017 0.1604769159356753
0.15182596135139464 0.15889133085807164
0.14334475014607112 0.15605206231276195
0.13831148823102316 0.1587364607055982
0.13424813356002172 0.15908724665641785
0.13087954916556677 0.16157384584347406
0.12836854700247446 0.1610618598262469
0.1264034232099851 0.15945439914862314
0.12430913589398067 0.16511854877074558
0.12248671193917593 0.16832119206587473
0.12129281451304753 0.15811480353275933
0.12006914436817169 0.15591193983952203
0.11848259741067886 0.1592925927042961
0.11834652584791183 0.15815859019756318
0.11697822962204615 0.15560730864604314
0.11602430897951126 0.15907463043928147
0.11552306244770685 0.16009751657644908
0.11511736178398133 0.16113737642765044
0.11420966885487238 0.1577363755305608
0.11290495830774307 0.16264787038167317
0.11299955906470617 0.16104634632666906
0.11178517810503642 0.15686328013737996
0.11121948083241781 0.15646003266175587
0.11097110372781753 0.15633367776870727
0.11048219001293183 0.15673106163740158
0.11008592393000921 0.15478718211253484
0.1093531760374705 0.15708057324091593
0.10872203564643859 0.16071773370107015
0.10844359745581945 0.15750890453656516
