0.20789170424143474 0.20640698472658794
0.15039639393488566 0.18202645351489385
0.14253866787751515 0.17897392402092616
0.13600351472695668 0.17243202408154806
0.13142196677128473 0.17288733224074046
0.1276956865588824 0.17388912051916122
0.12492083642880122 0.19816484540700913
0.12271202526489894 0.17336492210626603
0.12039860528707504 0.17337429036696753
0.11867814326286316 0.17464672178030013
0.11794581081469854 0.1778649608294169
0.1161955092549324 0.16295493443806966
0.115449722468853 0.1821903501947721
0.11480134401718775 0.17015754252672197
0.11340357299645742 0.18507371425628663
