0.20789170424143474 0.20640698472658794
0.15039639393488566 0.18202645351489385
0.14253866787751515 0.17897392402092616
0.13600351472695668 0.17243202408154806
0.13142196677128473 0.17288733224074046
0.1276956865588824 0.17388912051916122
0.12492083642880122 0.19816484540700913
0.12271202526489894 0.17336492210626603
0.12039860528707504 0.17337429036696753
0.11867814326286316 0.17464672178030013
0.11794581081469854 0.1778649608294169
0.1161955092549324 0.16295493443806966
0.115449722468853 0.1821903501947721
0.11480134401718775 0.17015754252672197
0.11340357299645742 0.18507371425628663
0.11278604869047801 0.17907953143119812
0.11128289500872295 0.16274804572264354
0.11106572697559992 0.16371552606423695
0.11008222726980846 0.17398268043994902
0.10936788640419642 0.16427407463391622
0.10913948001464208 0.16973335524400077
0.10842061956723531 0.16448406130075455
0.10808789563179017 0.15483307321866355
0.10759291603167852 0.16287318706512452
0.10708140103022258 0.2065357651313146
0.10668607197205225 0.16386199881633123
0.10629044240713119 0.1549371607104937
0.10609628198544184 0.1605173080166181
0.10539499831199646 0.15348034997781118
0.1050026140610377 0.15706794261932372
0.10487894634405771 0.15733915428320566
0.10461353208621343 0.15490345378716786
0.10410292168458303 0.15888282597064973
0.10408141654729842 0.16108172406752905
0.10387127880255381 0.1591475522518158
0.10352282871802648 0.155675488114357
0.10299502128362656 0.16144321779410045
0.1030004223982493 0.15336492518583933
0.10232628293832143 0.1621010441581408
0.10266408695777257 0.15921161065498987
0.10209884017705917 0.1612107828259468
0.10215825515985488 0.15680326422055563
0.10196618576844534 0.15334525595108667
0.1008051752448082 0.15514260699351629
0.10136571311950683 0.16832920004924137
0.10125589100519816 0.1490590657790502
0.10087665422757466 0.1541620002190272
0.10079701499144236 0.15570557951927186
0.10073490413029988 0.15733314792315164
0.10087215662002563 0.17730190793673198
0.1004877676765124 0.24935555974642434
0.1001910721262296 0.16293070683876673
0.10031641662120819 0.16019398560126621
0.10062546513477962 0.1632007736961047
0.09995607084035874 0.2346012459198634
0.09970473341147106 0.14881483902533849
0.09996976939837138 0.19797264138857523
0.0995172076622645 0.1549349460999171
0.09916223361094793 0.15052061488231022
0.09940845632553101 0.1758187946677208
0.09954297784964243 0.14926900098721185
0.09874379847447078 0.15278658658266067
0.09921530457337698 0.15645312001307807
0.09931078267097473 0.15319064110517502
0.09909930151700974 0.16236011614402135
0.09902169148127238 0.19605049689610798
0.0985904945731163 0.15342663377523422
0.09815851815541585 0.15271564463774362
0.09830974624554316 0.15572307169437408
0.09791232524315516 0.1520756231745084
0.09851358556747436 0.15486362198988596
0.09841378843784332 0.35455559293429056
0.09163980982700984 0.1528594962755839
0.08990597133835157 0.15402627577384312
0.09006393083930016 0.15368691205978394
0.08972515890995661 0.15215138475100198
0.0893523089090983 0.15327349136273066
0.08898950615525246 0.15341510782639187
0.08921861174702644 0.15132670799891154
0.08901228485504786 0.158495279053847
0.08871797463297844 0.15505242784818013
0.0888701219658057 0.1515169298648834
0.08873917469382286 0.1568317926923434
0.08861509789029758 0.16114013254642487
0.08853452375531197 0.15250871062278748
0.08878794191281 0.1527067118883133
0.08847705438733101 0.15114262362321218
0.08816395597656568 0.15608571499586105
0.08522124822934468 0.15402903775374094
0.08475619145234425 0.15365156094233196
0.08480019295215607 0.15313750594854356
0.0846412937839826 0.1537493411699931
0.0840506848593553 0.15261246711015702
0.08412288119395574 0.15298510293165843
0.08395318168401718 0.1542542075117429
0.08374423402547836 0.1544058459997177
0.0836155868669351 0.15343229134877523
0.08417425488432248 0.1534393366177877
0.08408016460140547 0.15320651670296986
0.0839257804453373 0.15288066158692043
0.08343609356880188 0.15463202009598415
0.08342342149217924 0.15384098052978515
0.08338460728526115 0.1536474381883939
0.08323089748620988 0.15594360768795013
0.08238031512498856 0.1546165308356285
0.08236889571944872 0.15412344227234523
0.08205914464592934 0.1549072116613388
0.08183681189020475 0.15475509385267894
0.08210905163486798 0.15411224355300268
0.08181580634911854 0.1537696581085523
0.08148714709281922 0.1533805106083552
0.08165909625093141 0.15361890306075415
0.08175796410441398 0.1552177055676778
0.08205642153819402 0.15525611410538356
0.08206503116091092 0.15365954806407292
0.081777238458395 0.15399303197860717
0.08176531171798707 0.15354018568992614
0.08163892391324043 0.15476892004410425
0.0812643849949042 0.1550191401441892
0.08150576589504878 0.15332355548938115
0.08153492592771848 0.15501889397700627
0.08161388476689657 0.1538394801815351
0.08102777876456578 0.1534996051589648
0.08156693963209788 0.15454650809367498
0.0812126680612564 0.1531625751654307
0.08150127544005711 0.1544440507888794
0.08130526585380236 0.15487807194391887
0.08149080748359362 0.15316345284382502
0.08120813246568044 0.15395257472991944
0.08185812252759933 0.15360611885786057
0.08144826114177704 0.1539066465695699
0.08139730772376061 0.1539778643846512
0.08120150603850683 0.1556202894449234
0.08069275664289792 0.1543330498536428
0.08120534746845563 0.15366733878850936
