0.20789170424143474 0.20640698472658794
0.15039639393488566 0.18202645351489385
0.14253866787751515 0.17897392402092616
0.13600351472695668 0.17243202408154806
0.13142196677128473 0.17288733224074046
