0.20789170424143474 0.20640698472658794
0.15039639393488566 0.18202645351489385
0.14253866787751515 0.17897392402092616
0.13600351472695668 0.17243202408154806
0.13142196677128473 0.17288733224074046
0.1276956865588824 0.17388912051916122
0.12492083642880122 0.19816484540700913
0.12271202526489894 0.17336492210626603
0.12039860528707504 0.17337429036696753
0.11867814326286316 0.17464672178030013
0.11794581081469854 0.1778649608294169
0.1161955092549324 0.16295493443806966
0.115449722468853 0.1821903501947721
0.11480134401718775 0.17015754252672197
0.11340357299645742 0.18507371425628663
0.11278604869047801 0.17907953143119812
0.11128289500872295 0.16274804572264354
0.11106572697559992 0.16371552606423695
0.11008222726980846 0.17398268043994902
0.10936788640419642 0.16427407463391622
0.10913948001464208 0.16973335524400077
0.10842061956723531 0.16448406130075455
0.10808789563179017 0.15483307321866355
0.10759291603167852 0.16287318706512452
0.10708140103022258 0.2065357651313146
0.10668607197205225 0.16386199881633123
0.10629044240713119 0.1549371607104937
0.10609628198544184 0.1605173080166181
0.10539499831199646 0.15348034997781118
0.1050026140610377 0.15706794261932372
0.10487894634405771 0.15733915428320566
0.10461353208621343 0.15490345378716786
0.10410292168458303 0.15888282597064973
0.10408141654729842 0.16108172406752905
0.10387127880255381 0.1591475522518158
0.10352282871802648 0.155675488114357
0.10299502128362656 0.16144321779410045
0.1030004223982493 0.15336492518583933
0.10232628293832143 0.1621010441581408
0.10266408695777257 0.15921161065498987
