0.21733131529628366 0.14176979584571642
0.15783565361862598 0.1626728444527357
0.15128025950297067 0.15826102116933236
0.14631562971550485 0.2699590707436586
0.14208135248526282 0.16841445977871233
0.138301188012828 0.14298436446831778
0.13502338658208432 0.15627263696529928
0.13255843753400057 0.2070916879635591
0.13050300427105116 0.17361000581429556
0.1282649056851 0.1320735739591794
0.12719179536553396 0.12482728083164264
0.12513489282649495 0.11878070827478017
0.1244980249715888 0.16012082592799112
0.1231339781180672 0.11653562425038753
0.12185546030168948 0.11687248410322727
0.12136919606423033 0.16277375148657042
0.12035813068134198 0.1197636759816072
0.11965588214604751 0.10530890314242779
0.11848184606735257 0.11350827931593625
0.11796828974848209 0.1335873217918934
0.11717484018940856 0.1102079030794975
0.1161238158310669 0.10877506587749873
0.11605987049963164 0.12236587359355046
0.11599914582743161 0.16041450336193427
0.11483924077904743 0.1083835468460352
0.11425153775059659 0.12253948721366051
0.11421867555034333 0.1263410217868976
0.1133058430707973 0.09562192494288468
0.11358249545961187 0.09632530846656898
0.11282871875210085 0.10249476631482442
0.1123749645507854 0.10730972523108506
0.11234683621188869 0.12922451950800726
0.11127161074807679 0.10881282408268024
0.11136268791945084 0.10199055285790028
0.11159366205118705 0.09972776568088776
0.1109433536944182 0.10017371368713868
0.11067461522593014 0.1010561092541768
0.11018175210641779 0.09346534235355182
0.10932924319868502 0.09508289855260116
0.10951174607743387 0.098806459743243
0.11035685886939367 0.12241802823085052
0.10883798767691073 0.09716600007735766
0.10904773236184881 0.10749552341607901
0.10867804455152456 0.09474793133827356
0.10863623094299565 0.23491779772134927
0.10793769528036533 0.09030594963293809
0.10820657483477523 0.09026223191848168
0.10789637604485387 0.13085729552385134
0.10730676903672841 0.09732364519284321
0.10775394230217174 0.1341938494871824
0.10742190262113792 0.11357620282050891
0.10752455464739731 0.16617560195617187
0.10733885052411453 0.10738525883509563
0.1069825885736424 0.13736190417638192
0.10647044384825056 0.12326624053410995
0.1069052427791167 0.11551502652657337
0.10731592258249505 0.08883350294751999
0.10639489267183387 0.1074614874445475
0.1068844671698584 0.09072133440237778
0.1058646515659664 0.09029389765018071
0.1058358079497365 0.0975509266822766
0.10611970580142477 0.09375741294561288
0.10533765621375346 0.09816182213716018
0.10598127945609714 0.10899297319925748
0.1056939812242121 0.09570464721092811
0.10708025721968084 0.09059222596578109
0.10535747268493624 0.11230738002520341
0.10549260807642039 0.1777036692469548
0.10462377660948297 0.10337027124105355
0.10443863516700441 0.09842828068977748
