0.21733131529628366 0.14176979584571642
0.15783565361862598 0.1626728444527357
0.15128025950297067 0.15826102116933236
0.14631562971550485 0.2699590707436586
0.14208135248526282 0.16841445977871233
0.138301188012828 0.14298436446831778
0.13502338658208432 0.15627263696529928
0.13255843753400057 0.2070916879635591
0.13050300427105116 0.17361000581429556
0.1282649056851 0.1320735739591794
0.12719179536553396 0.12482728083164264
0.12513489282649495 0.11878070827478017
0.1244980249715888 0.16012082592799112
0.1231339781180672 0.11653562425038753
0.12185546030168948 0.11687248410322727
