0.17236153558976408 0.12374217216020976
0.14193410311920054 0.11440378484817651
0.13004496542439944 0.26393763453532487
0.12230461643657822 0.13522033679943818
0.1188900181348773 0.10723853053954932
0.11531838118166163 0.1791297965324842
0.11270448183235915 0.10433396047506577
0.11036892511706421 0.10435872677809153
0.10906042111092719 0.10002280924564753
0.10810540018306262 0.10020010727338302
0.10554994975311169 0.10306178950346433
0.10509384350068328 0.10173396154856071
0.10362334558065386 0.10645320686774376
0.10236670962278394 0.10375587814129315
0.10209067947622659 0.10130418989902888
0.10058198731014693 0.0980018614194332
0.10010341930648554 0.11214266812954193
0.09997039059366004 0.12540713162758413
0.09938432261131812 0.09198170327223264
0.09883891916361408 0.09157207493598644
0.09775110941002334 0.10007760520928945
0.09742643813724103 0.10907367807932389
0.0973512776951859 0.14517159225084844
0.09663246911073077 0.11060163378715515
0.09622239576301712 0.0932435175547233
