0.17236153558976408 0.12374217216020976
0.14193410311920054 0.11440378484817651
0.13004496542439944 0.26393763453532487
0.12230461643657822 0.13522033679943818
0.1188900181348773 0.10723853053954932
0.11531838118166163 0.1791297965324842
0.11270448183235915 0.10433396047506577
0.11036892511706421 0.10435872677809153
0.10906042111092719 0.10002280924564753
0.10810540018306262 0.10020010727338302
