0.16025457920630773 0.18001990139484406
0.13461151097218196 0.29191660046577456
0.1263406391541163 0.15761823336283365
0.122566375096639 0.22071367780367535
0.11995524301131566 0.16996157735586168
0.11751974914471308 0.15113519489765168
