0.16025457920630773 0.18001990139484406
0.13461151097218196 0.29191660046577456
0.1263406391541163 0.15761823336283365
0.122566375096639 0.22071367780367535
0.11995524301131566 0.16996157735586168
0.11751974914471308 0.15113519489765168
0.11642854686578115 0.18759836703538896
0.11472362635533015 0.1647271306316058
0.11402598929405212 0.32634278337160744
0.11318816179037094 0.16011476665735244
0.11205289133389791 0.1807442871729533
0.11162240342299143 0.16007928808530172
0.11045962077379226 0.19632501482963563
0.1106299376686414 0.16099772135416668
0.10972872589031855 0.15636235704024634
0.10881139892339707 0.15399982144435248
0.10881321841478347 0.22843286832173665
0.10391307785113653 0.16033518115679424
0.10283710352579753 0.15590443849563598
0.10191692386070887 0.1561269493897756
0.10174144248167674 0.15777687807877858
0.10185009962320328 0.15998819967110953
0.10159576108058294 0.15706137130657832
0.10142150549093883 0.15709931403398514
0.10101738214492798 0.15269019375244777
0.10114441408713659 0.15594527502854666
0.10094710936148961 0.1553822389245033
0.10073182908693949 0.1528883296251297
0.09973737740516662 0.1540778268376986
0.09951548512776692 0.15339623192946117
0.0995636702577273 0.15492216100295383
0.09919601718584696 0.15486611326535543
0.09926768068472544 0.15438671151796976
0.09928643870353698 0.154836672047774
0.09910300983985265 0.15478696078062057
0.09929617118835449 0.15551736732323965
0.09933739838997523 0.15622445265452067
0.09891432571411132 0.15700924774010977
0.09903046445051829 0.15609889954328537
0.09878116009632747 0.15644170651833217
0.09885289845863979 0.15453582028547921
0.09870220539967219 0.15582857886950174
0.09864937617381414 0.15918428947528204
0.09883316741387049 0.15487151523431142
0.09868298039833705 0.15587423304716747
0.098596104602019 0.1541116472085317
0.0991518007715543 0.1529794124762217
0.09875104916095734 0.15453897098700206
0.09865983788172404 0.1533907816807429
0.09908618398507436 0.1551326482494672
