0.46593190052292566 0.24737543165683745
0.21375708756121722 0.17193892896175383
0.18919951197775928 0.1606341063976288
0.1812395422973416 0.1539876252412796
0.17365972460670906 0.15035577714443207
0.16997487978501755 0.14672531485557555
0.16622050512920727 0.1454964131116867
0.16493459994142706 0.14379436373710633
0.16293912008404732 0.14317458271980285
0.16189654069868 0.14326785802841185
0.159335311840881 0.14074985682964325
0.15875179117376154 0.1409081906080246
0.15760674666274677 0.13983488380908965
0.15764172476801006 0.13913774490356445
0.15757285058498383 0.1402022123336792
0.15499341183088042 0.13710764944553375
0.15496886555444112 0.138837793469429
0.15430938825011253 0.13767507076263427
0.1545390280132944 0.137112794816494
0.15260522711006078 0.1347404271364212
0.15313936228101904 0.13747570514678956
0.15221637216481296 0.13385117202997207
0.15140454775907777 0.13576553761959076
0.151175416667353 0.13444402664899827
0.14975607124241916 0.13369214683771133
0.1492464735426686 0.13496681153774262
0.14996487308632245 0.13600493520498275
0.14851044965061275 0.13163756281137468
0.14849455553022298 0.13253238201141357
0.14758762446316806 0.13228395581245422
0.1468755186281421 0.13128101974725723
0.1466648280620575 0.1283104881644249
0.14524615369737148 0.12773459255695344
0.14528823643922806 0.1307385042309761
0.14414205419068987 0.12722264975309372
0.14350458861074664 0.12822177708148957
0.14447559111497618 0.12812650799751282
0.14318678291006523 0.1251962438225746
