0.46593190052292566 0.24737543165683745
0.21375708756121722 0.17193892896175383
0.18919951197775928 0.1606341063976288
0.1812395422973416 0.1539876252412796
0.17365972460670906 0.15035577714443207
0.16997487978501755 0.14672531485557555
0.16622050512920727 0.1454964131116867
0.16493459994142706 0.14379436373710633
0.16293912008404732 0.14317458271980285
0.16189654069868 0.14326785802841185
0.159335311840881 0.14074985682964325
0.15875179117376154 0.1409081906080246
0.15760674666274677 0.13983488380908965
0.15764172476801006 0.13913774490356445
0.15757285058498383 0.1402022123336792
0.15499341183088042 0.13710764944553375
0.15496886555444112 0.138837793469429
0.15430938825011253 0.13767507076263427
0.1545390280132944 0.137112794816494
0.15260522711006078 0.1347404271364212
0.15313936228101904 0.13747570514678956
0.15221637216481296 0.13385117202997207
0.15140454775907777 0.13576553761959076
0.151175416667353 0.13444402664899827
0.14975607124241916 0.13369214683771133
0.1492464735426686 0.13496681153774262
0.14996487308632245 0.13600493520498275
0.14851044965061275 0.13163756281137468
0.14849455553022298 0.13253238201141357
0.14758762446316806 0.13228395581245422
0.1468755186281421 0.13128101974725723
0.1466648280620575 0.1283104881644249
0.14524615369737148 0.12773459255695344
0.14528823643922806 0.1307385042309761
0.14414205419068987 0.12722264975309372
0.14350458861074664 0.12822177708148957
0.14447559111497618 0.12812650799751282
0.14318678291006523 0.1251962438225746
0.1418155658651482 0.12542935460805893
0.14135527068918402 0.12711378335952758
0.1421851343051954 0.12447093278169633
0.14132854308594356 0.12539026588201524
0.1396898657760837 0.12028791308403015
0.13939618183807892 0.1253652185201645
0.14005840874531053 0.12003514468669892
0.13799402219328014 0.11941664665937424
0.13804250515320085 0.1184015303850174
0.13764386928894304 0.11860774755477906
0.1368395591324026 0.12048449516296386
0.13674378869208423 0.12154663354158401
0.136295289139856 0.11836863607168198
0.13526454838839444 0.11725308746099472
0.1356675052507357 0.11852465569972992
0.13415014642206105 0.11643993258476257
0.13428558832542462 0.11585944294929504
0.13325157372111623 0.11410920321941376
0.13445301049134947 0.1175081565976143
0.13351663303646175 0.11414125859737397
0.1329552957957441 0.11927122324705124
0.1327231592414054 0.11347904205322265
0.13175722363997588 0.11223759353160859
0.13165761039338328 0.11310894042253494
0.13169170018624177 0.11359917670488358
0.13075208460742777 0.11460118442773819
0.13048704967580058 0.11256841272115707
0.12993108870630915 0.1115185260772705
0.12909506346014413 0.1124846488237381
0.12957027706910262 0.11215068399906158
0.1295049674808979 0.11232942044734955
0.12900267947803845 0.1113022431731224
0.12792649407955733 0.11126553416252136
0.12785216234624386 0.10908635258674622
0.12814144417643547 0.11027905642986298
0.1272565834224224 0.10862507224082947
0.1275475870140574 0.10944082736968994
0.12637039612640033 0.10861772000789642
0.1262785785577514 0.10858918279409409
0.12569347413426096 0.1083240807056427
0.12773708965290675 0.10780916959047318
0.12619663300839337 0.1076291024684906
0.12522666494954715 0.10923741012811661
0.12503282658078455 0.10923845469951629
0.12571043842895466 0.10758154094219208
0.1239998708055778 0.10720759481191636
0.12450799193571914 0.10935146659612656
0.12499265559017658 0.10964029133319855
0.12495773505758155 0.10854469984769821
0.12365597537295385 0.10753138959407807
0.12345386584374038 0.10558399707078933
0.12294820967045697 0.10749314725399017
0.12327170219611037 0.10773862600326538
0.12303568473593755 0.10913464426994324
0.12356268326667222 0.10791456550359727
0.1226552352309227 0.1068625956773758
0.12238070131702856 0.10563929975032807
0.122420727529309 0.10577207058668137
0.12232571366158398 0.10560684204101563
0.12202238680964167 0.1071725219488144
0.12217740816148845 0.10656835734844208
0.12285433472557501 0.1082349419593811
0.12210394950075583 0.10492576360702514
0.1206042891876264 0.10508013367652894
0.12073674611747265 0.10488509535789489
0.12025561014359648 0.10409750938415527
0.11987268484451553 0.1047428697347641
0.11984679831022566 0.10381630212068557
0.12013630433516069 0.10417377501726151
0.12101296724920924 0.10436247736215591
0.12036312134428458 0.10446457117795944
0.1203844833441756 0.10433841347694398
0.11987223408438942 0.1044723480939865
0.11940195343711159 0.10414917916059493
0.12026586925441568 0.10397774577140809
0.11974688246846199 0.10417939126491546
0.11950713057409633 0.10376492887735367
0.11930214156481353 0.1041235238313675
0.12000088376755064 0.10379676967859268
0.12013391422277148 0.10440947264432907
0.11967897110364654 0.10408004820346832
0.11978265236724507 0.10467603355646134
0.12067773531783711 0.10447954535484313
0.11929669061845 0.10361044704914094
0.1201527648690072 0.10455549508333206
0.11922186985611916 0.10333271324634552
0.11972658708691597 0.10460982620716094
0.12026160701432011 0.10350801348686219
0.11959361369636926 0.10459471642971038
0.1196321462365714 0.10447657704353333
0.11995531466196883 0.10347204357385635
0.11969092285091226 0.10422029495239257
0.1192821470851248 0.10340463221073151
0.11881101436235687 0.10344274044036865
0.12096870165656913 0.10338916778564453
0.119616962461309 0.10365690439939498
0.12032322179187428 0.10364082008600235
0.11961574970998547 0.10362112373113633
0.11950744823975996 0.10421052575111389
0.11893683282489126 0.10363045930862427
0.11919971470805732 0.10406331866979598
0.11974858966740695 0.10361086726188659
0.11976105499673974 0.10449565947055817
0.11965400014411319 0.1035588562488556
0.11918091198260133 0.10405637323856354
0.1187821374359456 0.1042203888297081
0.11922635104168545 0.10349388569593429
0.11889314329759641 0.10395025610923767
0.11825451678173109 0.10388702601194381
0.11860731989145279 0.10393148511648179
0.11879068020392548 0.10361939072608947
0.11849252896552737 0.1036815419793129
0.11840794878927144 0.10343613922595978
0.12047933279113336 0.10342167764902115
0.11859846555373886 0.10416089445352554
0.11870138431814584 0.10314396917819976
