0.46593190052292566 0.24737543165683745
0.21375708756121722 0.17193892896175383
0.18919951197775928 0.1606341063976288
0.1812395422973416 0.1539876252412796
0.17365972460670906 0.15035577714443207
0.16997487978501755 0.14672531485557555
0.16622050512920727 0.1454964131116867
0.16493459994142706 0.14379436373710633
0.16293912008404732 0.14317458271980285
0.16189654069868 0.14326785802841185
0.159335311840881 0.14074985682964325
0.15875179117376154 0.1409081906080246
0.15760674666274677 0.13983488380908965
0.15764172476801006 0.13913774490356445
0.15757285058498383 0.1402022123336792
0.15499341183088042 0.13710764944553375
0.15496886555444112 0.138837793469429
0.15430938825011253 0.13767507076263427
0.1545390280132944 0.137112794816494
0.15260522711006078 0.1347404271364212
0.15313936228101904 0.13747570514678956
0.15221637216481296 0.13385117202997207
0.15140454775907777 0.13576553761959076
0.151175416667353 0.13444402664899827
0.14975607124241916 0.13369214683771133
0.1492464735426686 0.13496681153774262
0.14996487308632245 0.13600493520498275
0.14851044965061275 0.13163756281137468
0.14849455553022298 0.13253238201141357
0.14758762446316806 0.13228395581245422
0.1468755186281421 0.13128101974725723
0.1466648280620575 0.1283104881644249
0.14524615369737148 0.12773459255695344
0.14528823643922806 0.1307385042309761
0.14414205419068987 0.12722264975309372
0.14350458861074664 0.12822177708148957
0.14447559111497618 0.12812650799751282
0.14318678291006523 0.1251962438225746
0.1418155658651482 0.12542935460805893
0.14135527068918402 0.12711378335952758
0.1421851343051954 0.12447093278169633
0.14132854308594356 0.12539026588201524
0.1396898657760837 0.12028791308403015
0.13939618183807892 0.1253652185201645
0.14005840874531053 0.12003514468669892
0.13799402219328014 0.11941664665937424
0.13804250515320085 0.1184015303850174
0.13764386928894304 0.11860774755477906
0.1368395591324026 0.12048449516296386
0.13674378869208423 0.12154663354158401
0.136295289139856 0.11836863607168198
0.13526454838839444 0.11725308746099472
0.1356675052507357 0.11852465569972992
0.13415014642206105 0.11643993258476257
0.13428558832542462 0.11585944294929504
0.13325157372111623 0.11410920321941376
0.13445301049134947 0.1175081565976143
0.13351663303646175 0.11414125859737397
0.1329552957957441 0.11927122324705124
0.1327231592414054 0.11347904205322265
0.13175722363997588 0.11223759353160859
0.13165761039338328 0.11310894042253494
0.13169170018624177 0.11359917670488358
0.13075208460742777 0.11460118442773819
0.13048704967580058 0.11256841272115707
0.12993108870630915 0.1115185260772705
0.12909506346014413 0.1124846488237381
0.12957027706910262 0.11215068399906158
0.1295049674808979 0.11232942044734955
0.12900267947803845 0.1113022431731224
0.12792649407955733 0.11126553416252136
0.12785216234624386 0.10908635258674622
0.12814144417643547 0.11027905642986298
0.1272565834224224 0.10862507224082947
0.1275475870140574 0.10944082736968994
0.12637039612640033 0.10861772000789642
0.1262785785577514 0.10858918279409409
0.12569347413426096 0.1083240807056427
0.12773708965290675 0.10780916959047318
0.12619663300839337 0.1076291024684906
0.12522666494954715 0.10923741012811661
0.12503282658078455 0.10923845469951629
0.12571043842895466 0.10758154094219208
