0.46593190052292566 0.24737543165683745
0.21375708756121722 0.17193892896175383
0.18919951197775928 0.1606341063976288
0.1812395422973416 0.1539876252412796
0.17365972460670906 0.15035577714443207
0.16997487978501755 0.14672531485557555
0.16622050512920727 0.1454964131116867
0.16493459994142706 0.14379436373710633
