0.46593190052292566 0.24737543165683745
0.21375708756121722 0.17193892896175383
0.18919951197775928 0.1606341063976288
0.1812395422973416 0.1539876252412796
0.17365972460670906 0.15035577714443207
0.16997487978501755 0.14672531485557555
0.16622050512920727 0.1454964131116867
0.16493459994142706 0.14379436373710633
0.16293912008404732 0.14317458271980285
0.16189654069868 0.14326785802841185
0.159335311840881 0.14074985682964325
0.15875179117376154 0.1409081906080246
0.15760674666274677 0.13983488380908965
0.15764172476801006 0.13913774490356445
0.15757285058498383 0.1402022123336792
0.15499341183088042 0.13710764944553375
