0.28731580468064005 0.1570199817419052
0.16168188727037472 0.1977251023054123
0.155410901050676 0.2298462063074112
0.1482471346177838 0.14147917330265045
0.14450207251039418 0.15828765630722047
0.13864112137393517 0.13465459495782853
0.1332956262948838 0.1335296466946602
0.13019881888546728 0.16799938976764678
0.12930959920314225 0.17373212575912475
0.1287789007818157 0.1215394452214241
0.12602041458541696 0.1411939024925232
0.12492984160780907 0.1623285710811615
0.12326009554619138 0.14374650716781617
0.12344356406141412 0.13330351561307907
0.12175033376975493 0.11927364766597748
0.1204438138414513 0.2257926881313324
0.1196699200028723 0.1405877724289894
0.11798543991013007 0.1216421291232109
0.11826660297811031 0.18873411417007446
0.1173958226361058 0.12041032314300537
0.1200769106772813 0.12477376461029052
0.11761980486864393 0.11032179445028305
0.11556276289576833 0.1421516627073288
0.11691584522751244 0.12386524230241776
0.11653223735365001 0.3027493178844452
0.11528256112201647 0.11512118577957153
0.11489597098393874 0.13397033512592316
0.114918273111636 0.13982978761196135
0.1183908898383379 0.13519043773412703
0.11696368862282146 0.12701419740915298
0.11490173350003632 0.30581815242767335
0.11605182865803892 0.128403939306736
0.11573350548066876 0.1426493763923645
0.11640112847089767 0.20393907129764557
0.11546299572695386 0.10988099128007889
0.1131262503225695 0.14488238394260405
0.11401267383586276 0.1675097405910492
0.11247025074606593 0.1930578887462616
0.11508083665235476 0.16088206470012664
0.11404303867708553 0.1498458206653595
0.11458004164424809 0.15767766535282135
0.11496435529129072 0.12997501343488693
0.11032162454317916 0.1317101836204529
0.11094112778929147 0.37497328519821166
0.11206394891169938 0.10559637993574142
0.11169354600662534 0.23697378039360045
0.11451331796971234 0.14631524085998535
0.11062592555853454 0.10620068609714509
0.11593378081240437 0.1283361554145813
0.11414370567283848 0.15181176066398622
0.11268436536192894 0.1298781931400299
0.11677785996686328 0.17872327864170073
0.1202245486730879 0.11990955471992493
0.1195345741103996 0.20057843923568724
0.12098409641872752 0.11996958702802658
0.11476312171329152 0.22197110056877137
0.1126286079260436 0.2777666985988617
0.11412974548610774 0.19332146644592285
0.1155077742243355 0.38704800605773926
0.11313077739693901 0.1323244497179985
0.11142080768265507 0.10808487981557846
0.10488870926201344 0.09637176096439362
