0.28731580468064005 0.1570199817419052
0.16168188727037472 0.1977251023054123
0.155410901050676 0.2298462063074112
0.1482471346177838 0.14147917330265045
0.14450207251039418 0.15828765630722047
0.13864112137393517 0.13465459495782853
0.1332956262948838 0.1335296466946602
0.13019881888546728 0.16799938976764678
0.12930959920314225 0.17373212575912475
0.1287789007818157 0.1215394452214241
0.12602041458541696 0.1411939024925232
0.12492984160780907 0.1623285710811615
0.12326009554619138 0.14374650716781617
0.12344356406141412 0.13330351561307907
0.12175033376975493 0.11927364766597748
0.1204438138414513 0.2257926881313324
0.1196699200028723 0.1405877724289894
0.11798543991013007 0.1216421291232109
0.11826660297811031 0.18873411417007446
0.1173958226361058 0.12041032314300537
0.1200769106772813 0.12477376461029052
0.11761980486864393 0.11032179445028305
0.11556276289576833 0.1421516627073288
0.11691584522751244 0.12386524230241776
0.11653223735365001 0.3027493178844452
0.11528256112201647 0.11512118577957153
0.11489597098393874 0.13397033512592316
0.114918273111636 0.13982978761196135
0.1183908898383379 0.13519043773412703
0.11696368862282146 0.12701419740915298
