0.28731580468064005 0.1570199817419052
0.16168188727037472 0.1977251023054123
0.155410901050676 0.2298462063074112
0.1482471346177838 0.14147917330265045
0.14450207251039418 0.15828765630722047
0.13864112137393517 0.13465459495782853
0.1332956262948838 0.1335296466946602
0.13019881888546728 0.16799938976764678
0.12930959920314225 0.17373212575912475
0.1287789007818157 0.1215394452214241
0.12602041458541696 0.1411939024925232
0.12492984160780907 0.1623285710811615
0.12326009554619138 0.14374650716781617
0.12344356406141412 0.13330351561307907
0.12175033376975493 0.11927364766597748
0.1204438138414513 0.2257926881313324
0.1196699200028723 0.1405877724289894
0.11798543991013007 0.1216421291232109
0.11826660297811031 0.18873411417007446
0.1173958226361058 0.12041032314300537
0.1200769106772813 0.12477376461029052
0.11761980486864393 0.11032179445028305
0.11556276289576833 0.1421516627073288
0.11691584522751244 0.12386524230241776
0.11653223735365001 0.3027493178844452
0.11528256112201647 0.11512118577957153
0.11489597098393874 0.13397033512592316
0.114918273111636 0.13982978761196135
0.1183908898383379 0.13519043773412703
0.11696368862282146 0.12701419740915298
0.11490173350003632 0.30581815242767335
0.11605182865803892 0.128403939306736
0.11573350548066876 0.1426493763923645
0.11640112847089767 0.20393907129764557
0.11546299572695386 0.10988099128007889
0.1131262503225695 0.14488238394260405
0.11401267383586276 0.1675097405910492
0.11247025074606593 0.1930578887462616
0.11508083665235476 0.16088206470012664
0.11404303867708553 0.1498458206653595
0.11458004164424809 0.15767766535282135
0.11496435529129072 0.12997501343488693
0.11032162454317916 0.1317101836204529
0.11094112778929147 0.37497328519821166
0.11206394891169938 0.10559637993574142
0.11169354600662534 0.23697378039360045
0.11451331796971234 0.14631524085998535
0.11062592555853454 0.10620068609714509
0.11593378081240437 0.1283361554145813
0.11414370567283848 0.15181176066398622
0.11268436536192894 0.1298781931400299
0.11677785996686328 0.17872327864170073
0.1202245486730879 0.11990955471992493
0.1195345741103996 0.20057843923568724
0.12098409641872752 0.11996958702802658
0.11476312171329152 0.22197110056877137
0.1126286079260436 0.2777666985988617
0.11412974548610774 0.19332146644592285
0.1155077742243355 0.38704800605773926
0.11313077739693901 0.1323244497179985
0.11142080768265507 0.10808487981557846
0.10488870926201344 0.09637176096439362
0.10414353537965905 0.11034945100545883
0.10307706994089214 0.10843681693077087
0.10158285109156912 0.09667688459157944
0.1015243110331622 0.10433749109506607
0.10204195908524773 0.19743859469890596
0.10168805227360943 0.09422626197338105
0.10124819285490295 0.09484355747699738
0.1006748994643038 0.11173044741153718
0.100774683566256 0.1444018840789795
0.10014583085748283 0.10031123906373977
0.09969140961766243 0.11866487711668014
0.10139554027806628 0.09669467806816101
0.09975144978273999 0.11170000731945037
0.10255767591297626 0.10372051149606705
0.0997912949797782 0.09324593544006347
0.0998225924982266 0.1561661332845688
0.10601072826168755 0.10336489379405975
0.10082684101706202 0.10624165534973144
0.10007521391592243 0.11922327727079392
0.10036654143848202 0.10138510316610336
0.09954601915722544 0.10736398994922638
0.09926655820824883 0.09488765150308609
0.0985423590649258 0.1515957772731781
0.09826326082375916 0.10342522263526917
0.09998003833673218 0.11761897504329681
0.09970635548233986 0.2054799973964691
0.09885111417282712 0.10864160358905792
0.09865809265862811 0.10873793810606003
0.0989144178615375 0.10146590620279312
0.09913454882123253 0.10112645030021668
0.09924605912105604 0.13153955489397048
0.09506459364836867 0.09454161524772645
0.0935433181849393 0.09727175831794739
0.09283039160072803 0.10727592706680297
0.0940465886484493 0.09139611423015595
0.092736818743023 0.09366859793663025
0.09235309013588862 0.08850856870412827
0.09368559701198881 0.09512054175138474
0.09241704659705813 0.09989379644393921
0.09349519962614233 0.09197737127542496
0.0924975856799971 0.09552521854639054
0.09215920435434038 0.09506385028362274
0.09157532673667777 0.09910520911216736
0.09256296283142133 0.09503870904445648
0.09127726219594479 0.09379141181707382
0.09187285263429988 0.09562018066644669
0.09095690077678724 0.09382820874452591
0.0921189205890352 0.09447659850120545
0.09136462533338503 0.0967978522181511
0.092091403901577 0.09463845193386078
0.09087633646347305 0.0901640459895134
0.09079950184307316 0.09576597958803176
0.09085204486142505 0.09750558286905289
0.09117893349717963 0.09274349808692932
0.08885403756390918 0.0945287749171257
0.08952894078736956 0.09193486273288727
0.08882698907770893 0.09131202548742294
0.0890573908320882 0.09357479959726334
0.08852128125727177 0.09468331933021545
0.08806573904373428 0.09502060413360595
0.08937835710292513 0.093915393948555
0.08902684277431532 0.09338397830724716
0.08820730363103477 0.09473005533218384
0.08846855417571285 0.09698568880558014
0.08858442933044651 0.09485393464565277
0.08804643560539592 0.09700660854578018
0.08805954998189752 0.0949489489197731
0.08892666853287003 0.09596300423145294
0.08797772381116044 0.0950145035982132
0.08816275999627331 0.09429504126310348
0.08745379525829446 0.0946723148226738
0.08713512308895588 0.09266134798526764
0.08764712868089025 0.09283270835876464
0.0871942959387194 0.09430934488773346
0.08824789388613268 0.09607262909412384
0.08751164325936274 0.09345969706773757
0.08725304664535956 0.09334356784820556
0.08805084753442895 0.0921565756201744
0.08710303259166804 0.09638569355010987
0.088393348692493 0.09306819438934326
0.08756509406322782 0.09462848007678985
0.08772276443513957 0.09286312758922577
0.08854896829209545 0.0973434641957283
0.08719261938875372 0.09446706473827363
0.08813579448244789 0.09272946566343307
0.08802452480251138 0.09406066089868545
0.08755701441656459 0.0949241653084755
0.08781586316498843 0.09358506798744201
0.08725317127325317 0.09406324923038482
0.08794943581927907 0.09503795951604843
0.08796734633770856 0.09393107146024704
0.08638980900022117 0.09444044977426529
0.08783869292925704 0.09299262017011642
0.0876439782706174 0.09548854231834411
0.08738312954929742 0.0946701481938362
0.0877046620642597 0.0923531100153923
0.08802778155288914 0.09381103068590164
0.0868960613892837 0.094202421605587
