0.33252522761517384 0.20513893216848372
0.18233337491116625 0.1757073685526848
0.16797627540344887 0.17025102078914642
0.1601693354388501 0.16281867101788522
0.15582407884141233 0.1607547752559185
0.1532775857981215 0.15805338099598884
0.15097580057509402 0.1599058136343956
0.14960127086081404 0.16054721996188165
0.1471689704884874 0.15878571569919586
0.14488298969065888 0.15959188863635063
0.14277854720328717 0.16063283681869506
0.14118178759483582 0.16085570380091668
0.13931695799878302 0.16139170676469802
0.1390646033464594 0.16030838042497636
0.13865388929843903 0.16031260788440704
