0.33252522761517384 0.20513893216848372
0.18233337491116625 0.1757073685526848
0.16797627540344887 0.17025102078914642
0.1601693354388501 0.16281867101788522
0.15582407884141233 0.1607547752559185
0.1532775857981215 0.15805338099598884
