0.14981162196397782 0.188574807147185
0.12007193716367086 0.16825781365235645
0.113160460571448 0.17403111457824708
0.1081433249115944 0.17743968317906061
0.10591113464037577 0.15769534826278686
0.10302605384588241 0.2810280793905258
0.10198741926749548 0.1667831086119016
0.10005858715375264 0.20779171933730442
0.09934271470705668 0.16366431643565496
0.09814232069253921 0.1640228005250295
0.09710612676541011 0.16276062051455178
0.09689966475963592 0.16069367279609045
0.09605057227611542 0.15106369068225226
0.0953964369893074 0.1520135333140691
0.0943629616300265 0.1551671776175499
0.09393192621072133 0.1510891819993655
0.09397839170694351 0.16185271014769873
0.09301117839415868 0.15006647835175196
0.09269668004910152 0.16246283988157909
0.09249071981509527 0.15489742726087571
0.09177519657214482 0.14877585748831432
0.09160627230008443 0.14774391174316406
0.09160613121589024 0.15796955774227778
0.09110064276059468 0.15525576611359915
0.09095970592896144 0.1681493815779686
