0.26809004836894096 0.18455335199832917
0.16709143018468897 0.16374647617340088
0.1488611067229129 0.16984882727265357
0.14014089519673206 0.15918370038270951
0.1341645765177747 0.17918621450662614
0.1315685602578711 0.18805647790431976
0.1263262967162944 0.1665618523955345
0.12413958095489665 0.16138301342725753
0.12294276819584217 0.16257707700133323
0.12130804629401958 0.16594044044613837
0.1206528493698607 0.1631690353155136
0.11908687587748183 0.17070207968354226
0.11768107750314347 0.16456712111830712
0.11715691679335655 0.1675417512655258
0.11596512128698065 0.1681370846927166
0.11394540046123748 0.16453132554888725
0.11339313108870323 0.16414530649781228
0.11314638656504611 0.16458289697766304
0.11300752311944962 0.16396221965551377
0.11273548720364875 0.1638674892485142
0.1127355989623577 0.16387125551700593
0.11255210273443385 0.16409788355231286
0.11236591288383971 0.1645888313651085
0.11249015480279922 0.1678404375910759
0.11238628134448478 0.1665953926742077
0.11190014665431165 0.16426054984331132
0.11142946954103226 0.16384077444672585
0.1113120231856691 0.16432166397571563
0.11105220828284608 0.16346190348267556
0.11156090396515866 0.1640792854130268
0.1112882878552092 0.1645815394818783
0.1113672690822723 0.163893161714077
0.11111604834490633 0.16497261375188826
0.11120101999729237 0.16452713087201118
0.11113772604693757 0.16360013484954833
0.11118329506605229 0.16346488296985626
0.11111568532725598 0.16363188326358796
0.11109314367492149 0.16378203257918358
0.11117536447783734 0.16377677023410797
0.11078599634322714 0.16416413262486457
0.11086291312537294 0.16411626487970352
0.11089643186077158 0.1639904759824276
0.11103910366271405 0.16380562707781793
0.11125866989506052 0.16422793716192247
0.11102558260268354 0.16392667070031167
0.11089858333481119 0.16419667974114419
0.11098537514818475 0.16403970941901208
0.11111773756590296 0.16467527449131011
0.1107072299148174 0.16405068784952165
0.11074879337498482 0.164119004458189
0.11088174819312197 0.16410062909126283
0.11092890529556478 0.16447644531726838
0.11067516372558918 0.1643867313861847
0.11078763071526872 0.16412476152181626
0.11065171024900802 0.16417311504483223
