0.26809004836894096 0.18455335199832917
0.16709143018468897 0.16374647617340088
0.1488611067229129 0.16984882727265357
0.14014089519673206 0.15918370038270951
0.1341645765177747 0.17918621450662614
0.1315685602578711 0.18805647790431976
0.1263262967162944 0.1665618523955345
0.12413958095489665 0.16138301342725753
0.12294276819584217 0.16257707700133323
0.12130804629401958 0.16594044044613837
0.1206528493698607 0.1631690353155136
0.11908687587748183 0.17070207968354226
0.11768107750314347 0.16456712111830712
0.11715691679335655 0.1675417512655258
0.11596512128698065 0.1681370846927166
0.11394540046123748 0.16453132554888725
0.11339313108870323 0.16414530649781228
0.11314638656504611 0.16458289697766304
0.11300752311944962 0.16396221965551377
0.11273548720364875 0.1638674892485142
