0.2280520132780075 0.1633683713277181
0.14997557403643927 0.15894193251927693
0.1416689358552297 0.16229455510775248
0.13571646968523662 0.1592242681980133
0.13125548243522644 0.15882877578337987
0.12748236050208409 0.16106035331885019
0.12475861654678981 0.1562999509771665
0.122520989159743 0.15535301158825557
0.12086166763305664 0.16016011277834574
0.11964406623442968 0.1536433717608452
