0.2280520132780075 0.1633683713277181
0.14997557403643927 0.15894193251927693
0.1416689358552297 0.16229455510775248
0.13571646968523662 0.1592242681980133
0.13125548243522644 0.15882877578337987
0.12748236050208409 0.16106035331885019
0.12475861654678981 0.1562999509771665
0.122520989159743 0.15535301158825557
0.12086166763305664 0.16016011277834574
0.11964406623442968 0.1536433717608452
0.11776770571867624 0.16752482652664186
0.1167000820438067 0.1572124817967415
0.11566955266396205 0.15693888674179712
0.11480941820144654 0.1595104538400968
0.11389446721474329 0.15416068057219187
0.11275999015569686 0.15854892641305923
0.11227305380503337 0.15258259445428848
0.11149980191389719 0.1528424080212911
0.11047223569949469 0.1539010333021482
0.10991957579056422 0.15876274208227795
0.10934113160769145 0.1543750521540642
0.1090410815080007 0.16236447552839914
0.10859697014093399 0.159793858230114
0.10765729600191117 0.15818349639574686
0.10717333835363388 0.15973474343617758
0.10707777315378189 0.15791422754526138
0.10631662354866664 0.1544439435005188
0.10589781258503596 0.15973577350378038
0.10561686474084854 0.1522357968489329
0.1051850978533427 0.15663181374470392
0.10514391950766246 0.15627647578716278
0.10461115117867788 0.1533168680469195
0.10419721887509029 0.15982612550258637
0.10398440891504288 0.15559907088677088
0.10426090929905574 0.1527796769142151
0.10349305826425552 0.15354410181442896
0.10308472019433976 0.15663234442472457
0.10274301129579544 0.2153733895222346
0.10305993245045345 0.15607271860043206
0.10271594685316086 0.16135110308726627
0.10217749625444413 0.15242912501096725
0.10275000075499217 0.16283737490574518
0.1020289018948873 0.1626993402838707
0.10170091895262401 0.16644676585992177
0.10147115933895111 0.16013086309035618
0.09648508407672246 0.15747552931308748
0.09545286538203557 0.15651902784903846
0.09535032443205516 0.15817687511444092
0.09499721968173981 0.15872468183437982
0.09454504525661468 0.15696149110794066
0.09445286426941554 0.16025687515735626
0.09439762943983078 0.15969099322954813
0.0940300500591596 0.16265955656766892
0.09425485787789027 0.158889869650205
0.09389985394477844 0.16130158066749573
0.09402706325054169 0.15943072686592738
0.09354913991689683 0.1557002291083336
0.09354156031211218 0.15830615639686585
0.09343281902869542 0.15879204938809077
0.09350961903731028 0.1620355329910914
0.0934817283153534 0.16014176328976948
0.09132998339335123 0.15567333072423936
0.09047931099931399 0.1569135026137034
0.09040961293379465 0.1589751931031545
0.0902842367887497 0.16116012225548426
0.08963230518500011 0.1578605247537295
0.0899263049264749 0.15934809297323227
0.08933201054732005 0.16031184921662012
0.08944273289044698 0.15989148100217185
0.09000058817863464 0.15928559104601542
0.08961857322851817 0.15789992610613504
0.0894209460814794 0.1585037363568942
0.0893058224717776 0.15691681772470475
0.08864304316043854 0.1580253596107165
0.08952219652136167 0.15789745728174845
0.08903294839461645 0.15834432383378347
0.08888414758443833 0.1572812909881274
0.08845544262727102 0.1572593798240026
0.0879057992696762 0.15958635250727335
0.08812757156292597 0.15958835552136102
0.08784560889999071 0.16016520857810973
0.08797105876604716 0.15833416124184926
0.088195141573747 0.1573290330171585
0.08771936502059301 0.15859776397546133
0.08810005527734756 0.15971078207095465
0.08805610954761506 0.15937398185332616
0.08763899606466294 0.1593785513440768
0.08789636898040772 0.15726894746224085
0.08768134170770644 0.1588009693225225
0.08781819250186285 0.1578262758255005
0.08791657758752505 0.15889119416475295
0.0875532551407814 0.1583216057221095
0.08748706864317259 0.15869745155175527
0.08741334370772044 0.15993589162826538
0.08711664259433746 0.1586458025376002
