0.2280520132780075 0.1633683713277181
0.14997557403643927 0.15894193251927693
0.1416689358552297 0.16229455510775248
0.13571646968523662 0.1592242681980133
0.13125548243522644 0.15882877578337987
0.12748236050208409 0.16106035331885019
0.12475861654678981 0.1562999509771665
0.122520989159743 0.15535301158825557
0.12086166763305664 0.16016011277834574
0.11964406623442968 0.1536433717608452
0.11776770571867624 0.16752482652664186
0.1167000820438067 0.1572124817967415
0.11566955266396205 0.15693888674179712
0.11480941820144654 0.1595104538400968
0.11389446721474329 0.15416068057219187
0.11275999015569686 0.15854892641305923
0.11227305380503337 0.15258259445428848
0.11149980191389719 0.1528424080212911
0.11047223569949469 0.1539010333021482
0.10991957579056422 0.15876274208227795
0.10934113160769145 0.1543750521540642
0.1090410815080007 0.16236447552839914
0.10859697014093399 0.159793858230114
0.10765729600191117 0.15818349639574686
0.10717333835363388 0.15973474343617758
0.10707777315378189 0.15791422754526138
0.10631662354866664 0.1544439435005188
0.10589781258503596 0.15973577350378038
0.10561686474084854 0.1522357968489329
0.1051850978533427 0.15663181374470392
0.10514391950766246 0.15627647578716278
0.10461115117867788 0.1533168680469195
0.10419721887509029 0.15982612550258637
0.10398440891504288 0.15559907088677088
0.10426090929905574 0.1527796769142151
0.10349305826425552 0.15354410181442896
0.10308472019433976 0.15663234442472457
0.10274301129579544 0.2153733895222346
0.10305993245045345 0.15607271860043206
0.10271594685316086 0.16135110308726627
