0.30053825105758425 0.19674785882234574
0.19018563437969127 0.20229316353797913
0.183192844086505 0.19290709644556045
0.1785437949794404 0.17496726661920547
0.17396710020430545 0.17772485911846161
0.16753283555203297 0.17900555431842805
0.1633130315136402 0.17107192575931549
0.15983996841501683 0.1702548161149025
0.157737320724954 0.17242571860551834
0.15584022757854868 0.16837577074766158
0.1542258931601301 0.1725464478135109
0.1537144884784171 0.1640761002898216
0.15207974168848484 0.1749981924891472
0.150845172557425 0.17218773514032365
0.1500877674589766 0.1731334552168846
0.1492699073984268 0.17029282152652742
0.14813581711434304 0.169310100376606
0.1472784087378928 0.19824362248182298
0.1462419312051002 0.16763294637203216
0.1456021267048856 0.17214709520339966
0.1455042986793721 0.17289071381092072
0.14549970214671276 0.17040421813726425
0.14519923101080226 0.17400247603654861
0.1452873203348606 0.17362031936645508
0.144833357727274 0.1723463386297226
0.1447665659671134 0.17225152254104614
0.1446794128798424 0.1723176956176758
0.14473683402893392 0.17303635478019713
0.14470604252307973 0.17185327410697937
0.1446252221122701 0.17302696257829667
0.1447074498901976 0.17299096286296844
0.14455841925550014 0.17268234491348267
0.14457673563602122 0.17226389348506926
0.14472267380420198 0.1724680930376053
0.14489833249690684 0.17256676852703096
