0.30053825105758425 0.19674785882234574
0.19018563437969127 0.20229316353797913
0.183192844086505 0.19290709644556045
0.1785437949794404 0.17496726661920547
0.17396710020430545 0.17772485911846161
0.16753283555203297 0.17900555431842805
0.1633130315136402 0.17107192575931549
0.15983996841501683 0.1702548161149025
0.157737320724954 0.17242571860551834
0.15584022757854868 0.16837577074766158
