0.30053825105758425 0.19674785882234574
0.19018563437969127 0.20229316353797913
0.183192844086505 0.19290709644556045
0.1785437949794404 0.17496726661920547
0.17396710020430545 0.17772485911846161
0.16753283555203297 0.17900555431842805
0.1633130315136402 0.17107192575931549
0.15983996841501683 0.1702548161149025
0.157737320724954 0.17242571860551834
0.15584022757854868 0.16837577074766158
0.1542258931601301 0.1725464478135109
0.1537144884784171 0.1640761002898216
0.15207974168848484 0.1749981924891472
0.150845172557425 0.17218773514032365
0.1500877674589766 0.1731334552168846
0.1492699073984268 0.17029282152652742
0.14813581711434304 0.169310100376606
0.1472784087378928 0.19824362248182298
0.1462419312051002 0.16763294637203216
0.1456021267048856 0.17214709520339966
