0.3299030485478314 0.22935298979282379
0.18625784157352013 0.16679497957229614
0.15476002273234454 0.14557746946811675
0.1533056009899486 0.24241053760051728
0.14470965720035814 0.23625099956989287
0.13836128230799327 0.24913448691368104
0.13596900789575142 0.15035415291786194
0.1333033891225403 0.2252967596054077
0.1316758660091595 0.26990199983119967
0.1286355321380225 0.1844060719013214
0.12881153330884196 0.18050553500652314
0.12522424672814933 0.21692073047161103
0.12328014675189149 0.13497307747602463
0.12508841654793781 0.2726924866437912
0.12226608903570609 0.14694564640522004
0.1242549769919027 0.11673892438411712
0.12150632606988604 0.25418504178524015
0.11966070566665042 0.3063298165798187
0.11724796958945015 0.12494199573993683
0.11876996149393645 0.12029405534267426
0.11706266687674956 0.17749421596527098
0.11825332570482384 0.1475504830479622
0.11491698416119273 0.227264341711998
0.11680997332388704 0.2999126076698303
0.11804622716524384 0.11596139520406723
0.11678255975923756 0.12083389908075333
0.11460309831256216 0.21621756851673127
0.11580043218352577 0.117855966091156
0.11487257666885853 0.19312170147895813
0.11439662392843854 0.11941504180431366
0.11386815407736735 0.22385257184505464
0.11521713096987117 0.15464280545711517
0.11440167830071667 0.12874579280614853
0.11369858038696376 0.12650078684091567
0.11623639359392902 0.20759451985359192
0.11528359014879573 0.14380287677049636
0.11337015337564728 0.3659172773361206
0.11278704824772748 0.18934720158576965
0.11267815513367002 0.13330549150705337
0.1169092995537953 0.1746007740497589
