0.3299030485478314 0.22935298979282379
0.18625784157352013 0.16679497957229614
0.15476002273234454 0.14557746946811675
0.1533056009899486 0.24241053760051728
0.14470965720035814 0.23625099956989287
0.13836128230799327 0.24913448691368104
0.13596900789575142 0.15035415291786194
0.1333033891225403 0.2252967596054077
0.1316758660091595 0.26990199983119967
0.1286355321380225 0.1844060719013214
0.12881153330884196 0.18050553500652314
0.12522424672814933 0.21692073047161103
0.12328014675189149 0.13497307747602463
0.12508841654793781 0.2726924866437912
0.12226608903570609 0.14694564640522004
0.1242549769919027 0.11673892438411712
0.12150632606988604 0.25418504178524015
0.11966070566665042 0.3063298165798187
0.11724796958945015 0.12494199573993683
0.11876996149393645 0.12029405534267426
0.11706266687674956 0.17749421596527098
0.11825332570482384 0.1475504830479622
0.11491698416119273 0.227264341711998
0.11680997332388704 0.2999126076698303
0.11804622716524384 0.11596139520406723
0.11678255975923756 0.12083389908075333
0.11460309831256216 0.21621756851673127
0.11580043218352577 0.117855966091156
0.11487257666885853 0.19312170147895813
0.11439662392843854 0.11941504180431366
0.11386815407736735 0.22385257184505464
0.11521713096987117 0.15464280545711517
0.11440167830071667 0.12874579280614853
0.11369858038696376 0.12650078684091567
0.11623639359392902 0.20759451985359192
0.11528359014879573 0.14380287677049636
0.11337015337564728 0.3659172773361206
0.11278704824772748 0.18934720158576965
0.11267815513367002 0.13330549150705337
0.1169092995537953 0.1746007740497589
0.11279870654371651 0.3682096779346466
0.10850858535956252 0.09361887574195862
0.10369172116572206 0.0975563332438469
0.10450974394651977 0.10999768674373626
0.10330406119200317 0.09085977673530579
0.10207490216601979 0.09252406060695648
0.10182913206517696 0.09235512763261795
0.10379256223413078 0.11450007408857346
0.1035670114850456 0.11384991258382797
0.10352206077765334 0.09174917042255401
0.1029533486474644 0.14843511134386062
0.10352584719657898 0.10841306000947952
0.10158701291815801 0.09775494933128356
0.10069787891750986 0.09627692699432373
0.10153770260512829 0.09771127849817277
0.10165657407858154 0.0968330293893814
0.10187921571460637 0.1566069468855858
0.10056418383663351 0.10282129049301147
0.10188309018584815 0.12033408880233765
0.10278328220275315 0.10766922980546952
0.10117140259932388 0.1057579055428505
0.10006049343130806 0.09016241878271103
0.09727841141549023 0.0921157032251358
0.0971685778349638 0.09041183739900589
0.0987295765768398 0.08883262872695923
0.09712288850410418 0.0935322880744934
0.09611039998179133 0.09453295618295669
0.09551224586638538 0.08902104496955872
0.09547910568389026 0.08847168385982514
0.0962376118722287 0.09591870456933975
0.09535945291546258 0.09176187068223954
0.09541952186687426 0.09111004322767258
0.09567211145027117 0.10135112553834916
0.09594989635727623 0.09242897033691407
0.09446861459450288 0.09393120557069778
0.09543487209488045 0.09219029694795608
0.09672486307946118 0.09726934432983399
0.09593775360421701 0.09214440286159516
0.09663811241361228 0.09647144228219987
0.09573659233071587 0.09381579458713532
0.0944571943784302 0.09028149694204331
0.09521782178093087 0.09031849950551987
0.09642585908824747 0.09437145739793777
0.09509513019160791 0.0910688355565071
0.09431652115149931 0.09125769883394241
0.09315916862000119 0.088988396525383
0.09325674227015539 0.0899274080991745
0.09305341406302019 0.09252585619688034
0.09288288720629433 0.09134165942668915
0.09278664839538661 0.09004009664058685
0.09286806207488883 0.09107860326766967
0.09273200499063189 0.09209692031145096
0.09316113574261015 0.091417096555233
0.09307679483159022 0.09283301681280136
0.09251575933938677 0.09410969465970993
0.09199057265438816 0.09495100378990173
0.09205364334312352 0.09353563338518142
0.09215755506672642 0.09431277066469193
0.09214420007033781 0.09280619919300079
0.092043043368242 0.09200439304113388
0.09250131774355065 0.09203562289476394
0.09250383045185696 0.09067650437355042
0.09252699921754273 0.09106267988681793
0.09114596417004411 0.09219766855239868
0.0923368309370496 0.09173843413591384
0.09144576283341105 0.09305874407291412
0.09183409081941302 0.09238016605377197
0.09229541282084855 0.09287499040365219
0.09122950583696365 0.09241696894168853
0.09177568537945097 0.09185400903224945
0.09191278097304431 0.09227109551429749
0.09112935631789944 0.09261975288391114
0.09137197126719085 0.09097108542919159
0.09179066663438623 0.09165898263454438
0.09216005067256364 0.09262890368700027
0.09157534874975681 0.09328991770744324
0.09206920049407265 0.09151213765144348
0.09184809130701152 0.0923306792974472
0.09231858971444043 0.09203390926122665
0.09141008979217573 0.09209144562482834
0.09204652736132796 0.09206967502832412
0.09234258583323522 0.09142875671386719
0.09132995828986168 0.0929537296295166
0.09195141782137481 0.09204268604516982
0.09142826548354192 0.09257509261369705
0.09224331937730312 0.09122896641492843
0.09119831889190456 0.09322987347841263
0.09199667484922842 0.09282959252595901
0.09187710098922253 0.09211215823888778
0.09163084727796642 0.09286436289548874
0.09159853123128414 0.09158883392810821
0.09152270006862553 0.09174480736255645
0.09281289679082957 0.09049253165721893
0.09167621064592492 0.09191290885210038
0.09184073368934068 0.09388755559921265
0.0913491870530627 0.09241007566452027
0.09121415205299854 0.09171178042888642
0.09246499226851897 0.09052604883909225
0.091809375888922 0.09405838251113892
0.09129760160364887 0.09253020882606507
0.0913391016762365 0.09219220876693726
0.0922917616976933 0.09328562915325164
0.09123902310701934 0.0928285613656044
0.09217535670508038 0.09102879464626312
0.09176482175561515 0.09185563623905182
0.09114860201423819 0.09205892533063889
0.09235272438011387 0.09117531180381774
0.09137790582396767 0.09197148978710175
0.09141610715199601 0.09130159318447113
0.09089215540073135 0.09131031036376953
0.09105983867563984 0.094120092689991
0.09146430902183056 0.09207913875579835
0.09275840104303577 0.09171594679355621
0.09140025688843294 0.09242376238107682
0.09147558615288952 0.09315141886472703
0.09161597964438525 0.09254414737224578
0.0911002614620057 0.09252686351537705
0.09163045188920065 0.0921538308262825
0.09134794297543439 0.09222235083580017
0.09151687354526737 0.09267199486494064
0.09095631099560043 0.09277155250310898
0.09129185703667728 0.0926006019115448
0.09197291308505968 0.09100539982318878
0.09108913418921558 0.09140807688236237
0.09262916445732117 0.0925353780388832
0.09122426926412365 0.09246146529912949
0.09110525876960972 0.0919236734509468
0.09147142026234757 0.09242355078458786
0.09130437282676046 0.09154255837202072
0.0916112649508498 0.0917555958032608
0.09190777909349311 0.09412700086832046
0.09147528440437534 0.09053162038326264
0.0913522702387788 0.09182110130786895
0.09135332534259016 0.09261830002069474
0.09223861890760335 0.09276459068059921
