0.28158198328728373 0.17501683980226518
0.15615517503403603 0.1732744410634041
0.14518407748100606 0.23883560597896575
0.1386458899112458 0.17972463965415955
0.13599011714154102 0.1783235028386116
0.13173946563867814 0.16439587250351906
0.1295663540033584 0.16051296293735504
0.12661624541308017 0.16699315160512923
0.12403873037150566 0.18766262233257294
0.12240928237108474 0.16792369931936263
0.12206293040133537 0.1691356249153614
0.12047201093841106 0.1992742046713829
0.11856943178684154 0.17039456441998482
0.1178694503738525 0.17545599415898322
0.11728650347349491 0.26141775101423265
