0.28158198328728373 0.17501683980226518
0.15615517503403603 0.1732744410634041
0.14518407748100606 0.23883560597896575
0.1386458899112458 0.17972463965415955
0.13599011714154102 0.1783235028386116
0.13173946563867814 0.16439587250351906
0.1295663540033584 0.16051296293735504
0.12661624541308017 0.16699315160512923
0.12403873037150566 0.18766262233257294
0.12240928237108474 0.16792369931936263
0.12206293040133537 0.1691356249153614
0.12047201093841106 0.1992742046713829
0.11856943178684154 0.17039456441998482
0.1178694503738525 0.17545599415898322
0.11728650347349491 0.26141775101423265
0.11620444265451838 0.1601918578147888
0.11566894200253994 0.22174106240272523
0.11542798150727089 0.1717979371547699
0.11396532917910433 0.16891896203160287
0.11403175253183284 0.19985082894563674
0.11280388527728141 0.23265435844659804
0.11198692737107581 0.17693626880645752
0.11143420874438387 0.15936248153448104
0.11576145348396708 0.17415595203638076
0.10984747634923205 0.1599455252289772
