0.25005568738778433 0.17880031088987985
0.16737575101852417 0.171062021056811
0.1541831450064977 0.16661676506201425
0.14765562907854715 0.16726661523183187
0.1429664173523585 0.1602392221490542
0.13902639192342758 0.17666541675726571
0.13592365620533625 0.1673152087132136
0.13333946045239767 0.1611864828070005
0.13111296284198762 0.1722474158803622
0.12911739774545034 0.17354853322108588
0.12782987743616103 0.17392848253250123
0.12646031453212103 0.16905471801757813
0.12496093179782232 0.16582635839780172
0.12392918171485265 0.16087148269017537
0.12260951981941859 0.23135975420475005
0.12129079928000767 0.15949470152457554
0.12046661233901977 0.16484588046868642
0.11987681458393733 0.16109949638446172
0.1190301544268926 0.1664045563340187
0.11806605412562689 0.1850230547785759
0.11716399292151133 0.1768983323375384
0.11699221173922221 0.16859052826960882
0.11570485657453537 0.16021272500356037
0.11496715329090754 0.15893725842237472
0.11491530539592107 0.16285206158955892
0.11393538852532704 0.1582078136006991
0.11397929433981578 0.1579293891787529
0.11314901181062062 0.16190165787935257
0.11269558652242025 0.16357235570748646
0.11228021458784739 0.15536370158195495
0.11174052115281423 0.1638250829776128
0.11173452212413153 0.15952071438233056
0.11126054720083872 0.16490837881962458
0.11076302580038706 0.15946682780981064
0.110838407655557 0.1575849348306656
0.11052700378497442 0.15506295134623846
0.10991080965598424 0.1638561753431956
0.10965551479657491 0.20111192176739376
0.10911573640505473 0.15371592034896214
0.10460914450883865 0.15491862813631693
0.10422222940127054 0.15471797088781994
0.10393523186445236 0.15724427024523416
0.10353016370534897 0.15494421710570652
0.10375672866900762 0.15386162439982096
0.10302656328678131 0.1539691799879074
