0.25005568738778433 0.17880031088987985
0.16737575101852417 0.171062021056811
0.1541831450064977 0.16661676506201425
0.14765562907854715 0.16726661523183187
0.1429664173523585 0.1602392221490542
0.13902639192342758 0.17666541675726571
0.13592365620533625 0.1673152087132136
0.13333946045239767 0.1611864828070005
0.13111296284198762 0.1722474158803622
0.12911739774545034 0.17354853322108588
0.12782987743616103 0.17392848253250123
0.12646031453212103 0.16905471801757813
0.12496093179782232 0.16582635839780172
0.12392918171485265 0.16087148269017537
0.12260951981941859 0.23135975420475005
0.12129079928000767 0.15949470152457554
